{
"skeleton": { "hash": "ralaWswO7VOX1FtvozEbS2dzJ6A", "spine": "3.6.53", "width": 105.84, "height": 84.11, "images": "./images/" },
"bones": [
	{ "name": "root" },
	{ "name": "bone", "parent": "root", "x": 0.37, "y": 37.58 },
	{ "name": "xin", "parent": "root", "rotation": 1.52, "x": 32.7, "y": 4.83 },
	{ "name": "xin2", "parent": "root", "rotation": 14.91, "x": -44.93, "y": 27.44 },
	{ "name": "xin3", "parent": "root", "rotation": -17.01, "x": 33.92, "y": 64.22 }
],
"slots": [
	{ "name": "xinxinx", "bone": "root" },
	{ "name": "broth", "bone": "bone", "attachment": "broth" },
	{ "name": "xin", "bone": "xin", "attachment": "xin" },
	{ "name": "xin3", "bone": "xin3", "attachment": "xin" },
	{ "name": "xin2", "bone": "xin2", "attachment": "xin" }
],
"skins": {
	"default": {
		"broth": {
			"broth": { "x": -0.13, "y": -2.28, "width": 83, "height": 70 }
		},
		"xin": {
			"xin": { "x": -0.23, "y": -0.85, "scaleX": 0.35, "scaleY": 0.35, "width": 73, "height": 60 }
		},
		"xin2": {
			"xin": { "x": -0.25, "y": -1.52, "scaleX": 0.3, "scaleY": 0.3, "rotation": -5.05, "width": 73, "height": 60 }
		},
		"xin3": {
			"xin": { "x": -0.23, "y": -0.85, "scaleX": 0.35, "scaleY": 0.35, "width": 73, "height": 60 }
		}
	}
},
"animations": {
	"add": {
		"slots": {
			"xin": {
				"color": [
					{ "time": 0, "color": "ffffff00", "curve": "stepped" },
					{ "time": 0.2, "color": "ffffff00" },
					{ "time": 0.3333, "color": "ffffffff", "curve": "stepped" },
					{ "time": 0.4, "color": "ffffffff" },
					{ "time": 0.6, "color": "ffffff00" }
				],
				"attachment": [
					{ "time": 0, "name": "xin" }
				]
			},
			"xin2": {
				"color": [
					{ "time": 0, "color": "ffffff00", "curve": "stepped" },
					{ "time": 0.0667, "color": "ffffff00" },
					{ "time": 0.2333, "color": "ffffffff", "curve": "stepped" },
					{ "time": 0.3, "color": "ffffffff" },
					{ "time": 0.4667, "color": "ffffff00" }
				],
				"attachment": [
					{ "time": 0, "name": "xin" }
				]
			},
			"xin3": {
				"color": [
					{ "time": 0, "color": "ffffff00", "curve": "stepped" },
					{ "time": 0.3, "color": "ffffff00" },
					{ "time": 0.4, "color": "ffffffff", "curve": "stepped" },
					{ "time": 0.5, "color": "ffffffff" },
					{ "time": 0.6667, "color": "ffffff00" }
				],
				"attachment": [
					{ "time": 0, "name": "xin" },
					{ "time": 0.6667, "name": "xin" }
				]
			}
		},
		"bones": {
			"xin2": {
				"rotate": [
					{ "time": 0, "angle": 0, "curve": "stepped" },
					{ "time": 0.0667, "angle": 0, "curve": "stepped" },
					{ "time": 0.2333, "angle": 0, "curve": "stepped" },
					{ "time": 0.3, "angle": 0, "curve": "stepped" },
					{ "time": 0.4667, "angle": 0 }
				],
				"translate": [
					{ "time": 0, "x": 0, "y": 0, "curve": "stepped" },
					{ "time": 0.0667, "x": 0, "y": 0, "curve": "stepped" },
					{ "time": 0.2333, "x": 0, "y": 0, "curve": "stepped" },
					{ "time": 0.3, "x": 0, "y": 0, "curve": "stepped" },
					{ "time": 0.4667, "x": 0, "y": 0 }
				],
				"scale": [
					{ "time": 0, "x": 0.5, "y": 0.5, "curve": "stepped" },
					{ "time": 0.0667, "x": 0.5, "y": 0.5 },
					{ "time": 0.2333, "x": 1, "y": 1, "curve": "stepped" },
					{ "time": 0.3, "x": 1, "y": 1 },
					{ "time": 0.4667, "x": 0.5, "y": 0.5 }
				]
			},
			"xin": {
				"rotate": [
					{ "time": 0, "angle": -0.88, "curve": "stepped" },
					{ "time": 0.2, "angle": -0.88 },
					{ "time": 0.3333, "angle": 0, "curve": "stepped" },
					{ "time": 0.4, "angle": 0 },
					{ "time": 0.6, "angle": -0.88 }
				],
				"translate": [
					{ "time": 0, "x": 0, "y": 0, "curve": "stepped" },
					{ "time": 0.2, "x": 0, "y": 0, "curve": "stepped" },
					{ "time": 0.3333, "x": 0, "y": 0, "curve": "stepped" },
					{ "time": 0.4, "x": 0, "y": 0, "curve": "stepped" },
					{ "time": 0.6, "x": 0, "y": 0 }
				],
				"scale": [
					{ "time": 0, "x": 0.5, "y": 0.5, "curve": "stepped" },
					{ "time": 0.2, "x": 0.5, "y": 0.5 },
					{ "time": 0.3333, "x": 1, "y": 1, "curve": "stepped" },
					{ "time": 0.4, "x": 1, "y": 1 },
					{ "time": 0.6, "x": 0.5, "y": 0.5 }
				]
			},
			"bone": {
				"rotate": [
					{ "time": 0, "angle": 0, "curve": "stepped" },
					{ "time": 0.1333, "angle": 0, "curve": "stepped" },
					{ "time": 0.2667, "angle": 0, "curve": "stepped" },
					{ "time": 0.4, "angle": 0, "curve": "stepped" },
					{ "time": 0.5333, "angle": 0 }
				],
				"translate": [
					{ "time": 0, "x": 0, "y": 0 },
					{ "time": 0.1333, "x": 1.77, "y": -7.06 },
					{ "time": 0.2667, "x": 0, "y": 8.83 },
					{ "time": 0.4, "x": 1.77, "y": -7.06 },
					{ "time": 0.5333, "x": 0, "y": 0 }
				],
				"scale": [
					{ "time": 0, "x": 1, "y": 1 },
					{ "time": 0.1333, "x": 1.1, "y": 0.9 },
					{ "time": 0.2667, "x": 0.9, "y": 1.1 },
					{ "time": 0.4, "x": 1.1, "y": 0.9 },
					{ "time": 0.5333, "x": 1, "y": 1 }
				]
			},
			"xin3": {
				"rotate": [
					{ "time": 0, "angle": 0, "curve": "stepped" },
					{ "time": 0.3, "angle": 0, "curve": "stepped" },
					{ "time": 0.4, "angle": 0, "curve": "stepped" },
					{ "time": 0.5, "angle": 0, "curve": "stepped" },
					{ "time": 0.6667, "angle": 0 }
				],
				"translate": [
					{ "time": 0, "x": 0, "y": 0, "curve": "stepped" },
					{ "time": 0.3, "x": 0, "y": 0, "curve": "stepped" },
					{ "time": 0.4, "x": 0, "y": 0, "curve": "stepped" },
					{ "time": 0.5, "x": 0, "y": 0, "curve": "stepped" },
					{ "time": 0.6667, "x": 0, "y": 0 }
				],
				"scale": [
					{ "time": 0, "x": 0.5, "y": 0.5, "curve": "stepped" },
					{ "time": 0.3, "x": 0.5, "y": 0.5 },
					{ "time": 0.4, "x": 1, "y": 1, "curve": "stepped" },
					{ "time": 0.5, "x": 1, "y": 1 },
					{ "time": 0.6667, "x": 0.5, "y": 0.5 }
				]
			}
		}
	},
	"idle": {
		"slots": {
			"broth": {
				"color": [
					{ "time": 0, "color": "ffffffff" }
				]
			},
			"xin": {
				"attachment": [
					{ "time": 0, "name": null }
				]
			},
			"xin2": {
				"attachment": [
					{ "time": 0, "name": null }
				]
			},
			"xin3": {
				"attachment": [
					{ "time": 0, "name": null }
				]
			}
		},
		"bones": {
			"bone": {
				"rotate": [
					{ "time": 0, "angle": 0 }
				],
				"translate": [
					{ "time": 0, "x": 0, "y": 0 }
				],
				"scale": [
					{ "time": 0, "x": 1, "y": 1 }
				]
			}
		}
	},
	"reduce": {
		"slots": {
			"broth": {
				"color": [
					{
						"time": 0,
						"color": "ffffffff",
						"curve": [ 0.445, 0.62, 0.635, 0.9 ]
					},
					{
						"time": 0.2333,
						"color": "ffffff5a",
						"curve": [ 0.605, 0, 0.968, 0.62 ]
					},
					{ "time": 0.3667, "color": "ffffffff" }
				]
			},
			"xin": {
				"attachment": [
					{ "time": 0, "name": null }
				]
			},
			"xin2": {
				"attachment": [
					{ "time": 0, "name": null }
				]
			},
			"xin3": {
				"attachment": [
					{ "time": 0, "name": null }
				]
			}
		},
		"bones": {
			"bone": {
				"rotate": [
					{ "time": 0, "angle": 0, "curve": "stepped" },
					{ "time": 0.2333, "angle": 0, "curve": "stepped" },
					{ "time": 0.3667, "angle": 0 }
				],
				"translate": [
					{
						"time": 0,
						"x": 0,
						"y": 0,
						"curve": [ 0.445, 0.62, 0.635, 0.9 ]
					},
					{
						"time": 0.2333,
						"x": -2.98,
						"y": 6.06,
						"curve": [ 0.605, 0, 0.968, 0.62 ]
					},
					{ "time": 0.3667, "x": 0, "y": 0 }
				],
				"scale": [
					{
						"time": 0,
						"x": 1,
						"y": 1,
						"curve": [ 0.445, 0.62, 0.635, 0.9 ]
					},
					{
						"time": 0.2333,
						"x": 1.7,
						"y": 1.7,
						"curve": [ 0.605, 0, 0.968, 0.62 ]
					},
					{ "time": 0.3667, "x": 1, "y": 1 }
				]
			}
		}
	}
}
}