{
"skeleton": { "hash": "m9ubYMZaYoGOQbqU2WwcTZmeQhU", "spine": "3.6.53", "width": 657, "height": 678.65, "images": "" },
"bones": [
	{ "name": "root" },
	{ "name": "all", "parent": "root" },
	{ "name": "panel_curtain1", "parent": "all", "color": "f392bfff" },
	{ "name": "panel_curtain2", "parent": "all", "color": "f392bfff" },
	{ "name": "panel_title", "parent": "all", "x": 1, "y": 273.47 }
],
"slots": [
	{ "name": "panel_curtain1", "bone": "panel_curtain1", "attachment": "image/panel_curtain" },
	{ "name": "panel_curtain2", "bone": "panel_curtain2", "attachment": "image/panel_curtain" },
	{ "name": "panel_title", "bone": "panel_title", "attachment": "image/panel_title" }
],
"skins": {
	"default": {
		"panel_curtain1": {
			"image/panel_curtain": { "x": -129.02, "y": -20.19, "width": 264, "height": 586 }
		},
		"panel_curtain2": {
			"image/panel_curtain": { "x": 132, "y": -20.19, "scaleX": -1, "width": 264, "height": 586 }
		},
		"panel_title": {
			"image/panel_title": { "width": 657, "height": 184 }
		}
	}
},
"animations": {
	"close": {
		"bones": {
			"all": {
				"scale": [
					{ "time": 0, "x": 1, "y": 1 },
					{ "time": 0.1667, "x": 1.2, "y": 1.2 },
					{ "time": 0.3, "x": 0, "y": 0 }
				]
			}
		}
	},
	"idle": {},
	"open": {
		"bones": {
			"all": {
				"scale": [
					{ "time": 0, "x": 0, "y": 0 },
					{ "time": 0.1, "x": 1, "y": 1 },
					{ "time": 0.2667, "x": 1.1, "y": 1.1 },
					{ "time": 0.4, "x": 0.95, "y": 0.95 },
					{ "time": 0.5333, "x": 1, "y": 1 }
				]
			},
			"panel_title": {
				"translate": [
					{ "time": 0, "x": 0, "y": 0 },
					{ "time": 0.1, "x": 0, "y": -48.86 },
					{ "time": 0.3, "x": 0, "y": 11.17 },
					{ "time": 0.4333, "x": 0, "y": -12.33 },
					{ "time": 0.5667, "x": 0, "y": 0 }
				],
				"scale": [
					{ "time": 0, "x": 1, "y": 1 },
					{ "time": 0.1, "x": 0.948, "y": 0.881 },
					{ "time": 0.3, "x": 1.071, "y": 1.119 },
					{ "time": 0.4333, "x": 0.953, "y": 0.905 },
					{ "time": 0.5667, "x": 1, "y": 1 }
				]
			}
		}
	}
}
}