{
"skeleton": { "hash": "jgZvv4Xtkd6x+jQoh3oTq7yZ0s0", "spine": "3.6.53", "width": 122, "height": 129, "images": "./images/" },
"bones": [
	{ "name": "root" },
	{ "name": "all", "parent": "root" },
	{ "name": "crash_coins", "parent": "root", "color": "04f8f0ff" },
	{ "name": "crash_coins2", "parent": "root", "color": "04f8f0ff" },
	{ "name": "crash_coins_light", "parent": "root", "color": "ffcf00ff" },
	{ "name": "crash_coins_star", "parent": "root", "scaleX": 0.786, "scaleY": 0.786, "color": "35ff00ff" }
],
"slots": [
	{ "name": "crash_coins_light", "bone": "crash_coins_light", "attachment": "crash_coins_light" },
	{ "name": "crash_coins2", "bone": "crash_coins2", "attachment": "crash_coins" },
	{ "name": "crash_coins", "bone": "crash_coins", "attachment": "crash_coins" },
	{ "name": "crash_coins3", "bone": "all", "attachment": "crash_coins3" },
	{ "name": "crash_coins_star", "bone": "crash_coins_star", "attachment": "crash_coins_star" }
],
"skins": {
	"default": {
		"crash_coins": {
			"crash_coins": {
				"type": "mesh",
				"uvs": [ 1, 0.27368, 1, 0.6912, 0.86648, 0.83713, 0.71747, 1, 0.32409, 1, 0, 0.70336, 0, 0.27987, 0.26124, 0, 0.67706, 0, 0.4671, 0.19766, 0.21848, 0.48587, 0.85573, 0.39647, 0.43549, 0.86696, 0.68621, 0.65957 ],
				"triangles": [ 9, 7, 8, 6, 7, 9, 11, 8, 0, 9, 8, 11, 10, 6, 9, 13, 9, 11, 10, 9, 13, 11, 0, 1, 13, 11, 1, 5, 6, 10, 2, 13, 1, 12, 10, 13, 5, 10, 12, 4, 5, 12, 3, 13, 2, 12, 13, 3, 4, 12, 3 ],
				"vertices": [ 1, 2, 14.77, 31.87, 1, 1, 2, 32.22, 11.64, 1, 1, 2, 31.85, -1.02, 1, 1, 2, 31.44, -15.14, 1, 1, 2, 12.38, -31.58, 1, 1, 2, -15.73, -30.76, 1, 1, 2, -33.43, -10.23, 1, 1, 2, -32.47, 14.25, 1, 1, 2, -12.32, 31.63, 1, 1, 2, -14.23, 13.28, 1, 1, 2, -14.23, -11.08, 1, 1, 2, 12.91, 19.89, 1, 1, 2, 12.21, -20.48, 1, 1, 2, 15.69, 0.05, 1 ],
				"hull": 9,
				"edges": [ 0, 2, 6, 8, 14, 16, 10, 12, 12, 14, 16, 0, 8, 10, 2, 4, 4, 6 ],
				"width": 80,
				"height": 80
			}
		},
		"crash_coins2": {
			"crash_coins": {
				"type": "mesh",
				"uvs": [ 1, 0.27368, 1, 0.6912, 0.86648, 0.83713, 0.71747, 1, 0.32409, 1, 0, 0.70336, 0, 0.27987, 0.26124, 0, 0.67706, 0, 0.4671, 0.19766, 0.21848, 0.48587, 0.85573, 0.39647, 0.43549, 0.86696, 0.68621, 0.65957 ],
				"triangles": [ 9, 7, 8, 6, 7, 9, 11, 8, 0, 9, 8, 11, 10, 6, 9, 13, 9, 11, 10, 9, 13, 11, 0, 1, 13, 11, 1, 5, 6, 10, 2, 13, 1, 12, 10, 13, 5, 10, 12, 4, 5, 12, 3, 13, 2, 12, 13, 3, 4, 12, 3 ],
				"vertices": [ 1, 3, -15.27, 31.87, 1, 1, 3, -32.72, 11.64, 1, 1, 3, -32.35, -1.02, 1, 1, 3, -31.94, -15.14, 1, 1, 3, -12.88, -31.58, 1, 1, 3, 15.23, -30.76, 1, 1, 3, 32.93, -10.23, 1, 1, 3, 31.97, 14.25, 1, 1, 3, 11.82, 31.63, 1, 1, 3, 13.73, 13.28, 1, 1, 3, 13.73, -11.08, 1, 1, 3, -13.41, 19.89, 1, 1, 3, -12.71, -20.48, 1, 1, 3, -16.19, 0.05, 1 ],
				"hull": 9,
				"edges": [ 0, 2, 6, 8, 14, 16, 10, 12, 12, 14, 16, 0, 8, 10, 2, 4, 4, 6 ],
				"width": 80,
				"height": 80
			}
		},
		"crash_coins3": {
			"crash_coins2": { "scaleX": 0.8, "scaleY": 0.75, "width": 80, "height": 80 },
			"crash_coins3": { "path": "crash_coins2", "x": -2.67, "scaleX": -0.8, "scaleY": 0.75, "width": 80, "height": 80 }
		},
		"crash_coins_light": {
			"crash_coins_light": { "width": 122, "height": 129 }
		},
		"crash_coins_star": {
			"crash_coins_star": { "width": 123, "height": 116 }
		}
	}
},
"animations": {
	"start": {
		"slots": {
			"crash_coins": {
				"color": [
					{ "time": 0, "color": "ffffffff", "curve": "stepped" },
					{ "time": 0.7, "color": "ffffffff" },
					{ "time": 0.8333, "color": "ffffff00" }
				],
				"attachment": [
					{ "time": 0, "name": "crash_coins" },
					{ "time": 0.1, "name": null },
					{ "time": 0.3, "name": "crash_coins" },
					{ "time": 0.3667, "name": null },
					{ "time": 0.5667, "name": "crash_coins" }
				]
			},
			"crash_coins2": {
				"attachment": [
					{ "time": 0, "name": null },
					{ "time": 0.2333, "name": "crash_coins" },
					{ "time": 0.3, "name": null },
					{ "time": 0.5, "name": "crash_coins" },
					{ "time": 0.5667, "name": null }
				]
			},
			"crash_coins3": {
				"attachment": [
					{ "time": 0, "name": null },
					{ "time": 0.1, "name": "crash_coins2" },
					{ "time": 0.1667, "name": "crash_coins3" },
					{ "time": 0.2333, "name": null },
					{ "time": 0.3667, "name": "crash_coins2" },
					{ "time": 0.4333, "name": "crash_coins3" },
					{ "time": 0.5, "name": null },
					{ "time": 1.2, "name": null }
				]
			},
			"crash_coins_light": {
				"color": [
					{ "time": 0, "color": "ffffffff", "curve": "stepped" },
					{ "time": 0.5, "color": "ffffffff" },
					{ "time": 0.6667, "color": "ffffff00" }
				]
			},
			"crash_coins_star": {
				"color": [
					{ "time": 0.3667, "color": "ffffffff" },
					{ "time": 0.5333, "color": "ffffff00" }
				],
				"attachment": [
					{ "time": 0, "name": null },
					{ "time": 0.1667, "name": "crash_coins_star" }
				]
			}
		},
		"bones": {
			"crash_coins": {
				"scale": [
					{ "time": 0, "x": 1, "y": 1, "curve": "stepped" },
					{ "time": 0.5667, "x": 1, "y": 1 },
					{ "time": 0.6667, "x": 1.5, "y": 1.5 },
					{ "time": 0.8, "x": 2.3, "y": 2.3 }
				]
			},
			"crash_coins_light": {
				"rotate": [
					{ "time": 0, "angle": 0 },
					{ "time": 0.6667, "angle": -70 }
				],
				"scale": [
					{ "time": 0, "x": 0, "y": 0 },
					{ "time": 0.1667, "x": 0.803, "y": 0.803 }
				]
			},
			"crash_coins_star": {
				"scale": [
					{ "time": 0, "x": 0, "y": 0, "curve": "stepped" },
					{ "time": 0.1, "x": 0, "y": 0 },
					{ "time": 0.2667, "x": 0.894, "y": 0.894 },
					{ "time": 0.4667, "x": 0.988, "y": 0.988 }
				]
			}
		},
		"deform": {
			"default": {
				"crash_coins": {
					"crash_coins": [
						{ "time": 0 },
						{
							"time": 0.0667,
							"vertices": [ -4.52401, -0.34802, -4.10201, 4.81998, -2.78405, 0.69599, -3.05805, -2.01399, -4.52401, -0.34802, -0.34797, 1.39199, 4.87199, 0.34805, 4.52396, -1.73994, -1.044, -2.08799, -0.69598, -0.34801, -0.34798, -1.0E-5, -12.27603, 0.074, -11.23201, 0.07398, -13.54198, -0.34802 ]
						},
						{ "time": 0.1, "curve": "stepped" },
						{ "time": 0.3 },
						{
							"time": 0.3333,
							"vertices": [ -4.52401, -0.34802, -4.10201, 4.81998, -2.78405, 0.69599, -3.05805, -2.01399, -4.52401, -0.34802, -0.34797, 1.39199, 4.87199, 0.34805, 4.52396, -1.73994, -1.044, -2.08799, -0.69598, -0.34801, -0.34798, -1.0E-5, -12.27603, 0.074, -11.23201, 0.07398, -13.54198, -0.34802 ]
						},
						{
							"time": 0.3667,
							"vertices": [ -4.52401, -0.34802, -4.52404, 3.13196, -2.78405, 0.69599, -3.48003, -2.436, -4.52401, -0.34802, -0.34797, 1.39199, 4.87199, 0.34805, 4.52396, -1.73994, -1.044, -2.08799, -0.69598, -0.34801, -0.34798, -1.0E-5, -9.74401, -0.34801, -8.7, -0.34801, -9.74399, -0.34801 ],
							"curve": "stepped"
						},
						{
							"time": 0.5333,
							"vertices": [ -4.52401, -0.34802, -4.52404, 3.13196, -2.78405, 0.69599, -3.48003, -2.436, -4.52401, -0.34802, -0.34797, 1.39199, 4.87199, 0.34805, 4.52396, -1.73994, -1.044, -2.08799, -0.69598, -0.34801, -0.34798, -1.0E-5, -9.74401, -0.34801, -8.7, -0.34801, -9.74399, -0.34801 ]
						},
						{ "time": 0.5667 }
					]
				},
				"crash_coins2": {
					"crash_coins": [
						{
							"time": 0,
							"vertices": [ 4.87203, 1.04402, 3.00599, 4.39805, 1.04399, 0, 2.362, -4.27206, 5.22002, -2.43597, -2.08798, 0.34801, -6.43402, -0.27403, -5.93803, 0.222, -1.044, -0.348, -1.74001, 1.0E-5, -2.78397, -0.348, 6.21203, 0.22201, 6.13804, -0.27398, 9.24004, -0.69598 ],
							"curve": "stepped"
						},
						{
							"time": 0.2333,
							"vertices": [ 4.87203, 1.04402, 3.00599, 4.39805, 1.04399, 0, 2.362, -4.27206, 5.22002, -2.43597, -2.08798, 0.34801, -6.43402, -0.27403, -5.93803, 0.222, -1.044, -0.348, -1.74001, 1.0E-5, -2.78397, -0.348, 6.21203, 0.22201, 6.13804, -0.27398, 9.24004, -0.69598 ]
						},
						{ "time": 0.2667 },
						{
							"time": 0.3,
							"vertices": [ 4.87203, 1.04402, 3.00599, 4.39805, 1.04399, 0, 2.362, -4.27206, 5.22002, -2.43597, -2.08798, 0.34801, -6.43402, -0.27403, -5.93803, 0.222, -1.044, -0.348, -1.74001, 1.0E-5, -2.78397, -0.348, 6.21203, 0.22201, 6.13804, -0.27398, 9.24004, -0.69598 ],
							"curve": "stepped"
						},
						{
							"time": 0.5,
							"vertices": [ 4.87203, 1.04402, 3.00599, 4.39805, 1.04399, 0, 2.362, -4.27206, 5.22002, -2.43597, -2.08798, 0.34801, -6.43402, -0.27403, -5.93803, 0.222, -1.044, -0.348, -1.74001, 1.0E-5, -2.78397, -0.348, 6.21203, 0.22201, 6.13804, -0.27398, 9.24004, -0.69598 ]
						},
						{ "time": 0.5333 },
						{
							"time": 0.5667,
							"vertices": [ 4.87203, 1.04402, 3.00599, 4.39805, 1.04399, 0, 2.362, -4.27206, 5.22002, -2.43597, -2.08798, 0.34801, -6.43402, -0.27403, -5.93803, 0.222, -1.044, -0.348, -1.74001, 1.0E-5, -2.78397, -0.348, 6.21203, 0.22201, 6.13804, -0.27398, 9.24004, -0.69598 ]
						}
					]
				}
			}
		}
	}
}
}