{
"skeleton": { "hash": "2P384f0hHebnGzK7vA/t8QxKYMU", "spine": "3.6.53", "width": 111, "height": 137, "images": "./images/" },
"bones": [
	{ "name": "root" },
	{ "name": "restaurant_tree", "parent": "root", "length": 176.12, "rotation": 89.45, "x": -0.96, "y": 5.49 }
],
"slots": [
	{ "name": "restaurant_tree", "bone": "restaurant_tree", "attachment": "restaurant_tree" }
],
"skins": {
	"default": {
		"restaurant_tree": {
			"restaurant_tree": { "x": 62.93, "y": -0.72, "rotation": -89.45, "width": 111, "height": 137 }
		}
	}
},
"animations": {
	"idle": {
		"slots": {
			"restaurant_tree": {
				"color": [
					{ "time": 0, "color": "ffffffff" }
				]
			}
		},
		"bones": {
			"restaurant_tree": {
				"rotate": [
					{ "time": 0, "angle": 0 }
				],
				"translate": [
					{ "time": 0, "x": 0, "y": 0 }
				],
				"scale": [
					{ "time": 0, "x": 1, "y": 1 }
				]
			}
		}
	},
	"install": {
		"slots": {
			"restaurant_tree": {
				"color": [
					{ "time": 0, "color": "ffffff00" },
					{ "time": 0.1, "color": "ffffffff", "curve": "stepped" },
					{ "time": 0.2, "color": "ffffffff", "curve": "stepped" },
					{ "time": 0.3333, "color": "ffffffff", "curve": "stepped" },
					{ "time": 0.4667, "color": "ffffffff" }
				]
			}
		},
		"bones": {
			"restaurant_tree": {
				"rotate": [
					{ "time": 0, "angle": 0, "curve": "stepped" },
					{ "time": 0.1, "angle": 0, "curve": "stepped" },
					{ "time": 0.2, "angle": 0, "curve": "stepped" },
					{ "time": 0.3333, "angle": 0, "curve": "stepped" },
					{ "time": 0.4667, "angle": 0 }
				],
				"translate": [
					{ "time": 0, "x": -1.09, "y": 32.7 },
					{ "time": 0.1, "x": 0, "y": 0, "curve": "stepped" },
					{ "time": 0.2, "x": 0, "y": 0 },
					{ "time": 0.3333, "x": -0.54, "y": 7.14 },
					{ "time": 0.4667, "x": 0, "y": 0 }
				],
				"scale": [
					{ "time": 0, "x": 1, "y": 1, "curve": "stepped" },
					{ "time": 0.1, "x": 1, "y": 1 },
					{ "time": 0.2, "x": 0.95, "y": 1.05 },
					{ "time": 0.3333, "x": 1.05, "y": 0.95 },
					{ "time": 0.4667, "x": 1, "y": 1 }
				]
			}
		}
	}
}
}