{
"skeleton": { "hash": "O1IkiyrHN3pzAGGRd1xuGGJJets", "spine": "3.6.53", "width": 31.03, "height": 25.04, "images": "./images/" },
"bones": [
	{ "name": "root", "rotation": -0.06 },
	{ "name": "bubble_0", "parent": "root", "length": 22.1, "rotation": 90.06, "x": -3.04, "y": 2.4 }
],
"slots": [
	{ "name": "bubble_0", "bone": "bubble_0", "attachment": "bubble_0" }
],
"skins": {
	"default": {
		"bubble_0": {
			"bubble_0": { "x": 11.08, "y": -0.69, "rotation": -90.06, "width": 31, "height": 25 },
			"bubble_1": { "x": 13.58, "y": -3.69, "rotation": -90.06, "width": 53, "height": 35 },
			"bubble_2": { "x": 20.08, "y": -5.7, "rotation": -90.06, "width": 70, "height": 59 },
			"bubble_3": { "x": 32.58, "y": -3.71, "rotation": -90.06, "width": 73, "height": 70 },
			"bubble_4": { "x": 9.57, "y": -8.19, "rotation": -90.06, "width": 76, "height": 26 },
			"bubble_5": { "x": 9.08, "y": -6.19, "rotation": -90.06, "width": 78, "height": 23 },
			"bubble_6": { "x": 12.58, "y": -2.69, "rotation": -90.06, "width": 76, "height": 20 },
			"bubble_7": { "x": 9.58, "y": -5.69, "rotation": -90.06, "width": 74, "height": 11 }
		}
	}
},
"animations": {
	"animation": {
		"slots": {
			"bubble_0": {
				"attachment": [
					{ "time": 0, "name": null },
					{ "time": 0.0333, "name": "bubble_0" },
					{ "time": 0.6667, "name": "bubble_0" },
					{ "time": 1.1667, "name": "bubble_0" },
					{ "time": 1.6, "name": "bubble_0" },
					{ "time": 1.7, "name": "bubble_1" },
					{ "time": 1.8333, "name": "bubble_2" },
					{ "time": 1.9333, "name": "bubble_3" },
					{ "time": 2.0333, "name": "bubble_4" },
					{ "time": 2.1333, "name": "bubble_5" },
					{ "time": 2.2667, "name": "bubble_6" },
					{ "time": 2.3667, "name": "bubble_7" },
					{ "time": 2.4667, "name": null }
				]
			}
		},
		"bones": {
			"bubble_0": {
				"rotate": [
					{ "time": 0, "angle": 0, "curve": "stepped" },
					{ "time": 0.0333, "angle": 0, "curve": "stepped" },
					{ "time": 0.6667, "angle": 0, "curve": "stepped" },
					{ "time": 1.1667, "angle": 0, "curve": "stepped" },
					{ "time": 1.6, "angle": 0, "curve": "stepped" },
					{ "time": 2.4667, "angle": 0 }
				],
				"translate": [
					{ "time": 0, "x": 0, "y": 0, "curve": "stepped" },
					{ "time": 0.0333, "x": 0, "y": 0, "curve": "stepped" },
					{ "time": 0.6667, "x": 0, "y": 0 },
					{ "time": 1.1667, "x": -0.34, "y": -1.02 },
					{ "time": 1.6, "x": 0, "y": 0, "curve": "stepped" },
					{ "time": 2.4667, "x": 0, "y": 0 }
				],
				"scale": [
					{ "time": 0, "x": 1, "y": 1 },
					{ "time": 0.0333, "x": 0.1, "y": 0.8 },
					{ "time": 0.6667, "x": 1, "y": 1 },
					{ "time": 1.1667, "x": 0.9, "y": 1.2 },
					{ "time": 1.6, "x": 1, "y": 1, "curve": "stepped" },
					{ "time": 2.4667, "x": 1, "y": 1 }
				]
			}
		}
	}
}
}