{
"skeleton": { "hash": "WCanSmEygbwD+c+o+5Ul9hkIGgs", "spine": "3.6.53", "width": 87.13, "height": 87.13, "images": "./images/" },
"bones": [
	{ "name": "root" },
	{ "name": "ground", "parent": "root", "length": 52.26, "rotation": 90.59, "x": 1.93, "y": 6.55 },
	{ "name": "anim_0", "parent": "ground", "x": 44.5, "y": 1.42 },
	{ "name": "anim_2", "parent": "anim_0", "x": 1.64, "y": 2.93 },
	{ "name": "paopao", "parent": "ground", "x": 51.01, "y": -17.14 },
	{ "name": "paopao2", "parent": "ground", "x": 40.85, "y": 10.57 },
	{ "name": "paopao3", "parent": "ground", "x": 9.78, "y": -13.23 },
	{ "name": "paopao4", "parent": "ground", "x": 10.34, "y": 15.44 }
],
"slots": [
	{ "name": "ground", "bone": "ground", "attachment": "ground" },
	{ "name": "anim_0", "bone": "anim_0", "attachment": "anim_0" },
	{ "name": "paopao", "bone": "paopao", "attachment": "paopao" },
	{ "name": "paopao2", "bone": "paopao2", "attachment": "paopao" },
	{ "name": "paopao3", "bone": "paopao3", "attachment": "paopao" },
	{ "name": "paopao4", "bone": "paopao4", "attachment": "paopao" },
	{ "name": "anim_1", "bone": "anim_2", "attachment": "anim_1" },
	{ "name": "light", "bone": "root", "attachment": "light" }
],
"skins": {
	"default": {
		"anim_0": {
			"anim_0": { "x": -0.71, "y": -0.63, "rotation": -90.67, "width": 75, "height": 47 }
		},
		"anim_1": {
			"anim_1": { "x": 1.1, "y": -8.6, "rotation": -90.67, "width": 73, "height": 48 }
		},
		"ground": {
			"ground": { "x": 37.79, "y": 0.85, "rotation": -90.67, "width": 87, "height": 87 }
		},
		"light": {
			"light": { "x": -6.31, "y": 47.33, "rotation": -0.08, "width": 65, "height": 69 }
		},
		"paopao": {
			"paopao": { "x": 0.13, "y": 0.1, "scaleX": 0.679, "scaleY": 0.679, "rotation": -90.67, "width": 11, "height": 11 }
		},
		"paopao2": {
			"paopao": { "x": 0.4, "y": 0.1, "scaleX": 0.617, "scaleY": 0.617, "rotation": -90.67, "width": 11, "height": 11 }
		},
		"paopao3": {
			"paopao": { "x": -0.13, "y": 0.37, "rotation": -90.67, "width": 11, "height": 11 }
		},
		"paopao4": {
			"paopao": { "x": -0.13, "y": 0.1, "rotation": -90.67, "width": 11, "height": 11 }
		}
	}
},
"animations": {
	"saodong": {
		"slots": {
			"anim_1": {
				"color": [
					{ "time": 0, "color": "ffffffff" },
					{ "time": 0.7333, "color": "ffffff75" },
					{ "time": 1.5, "color": "ffffffff" }
				]
			},
			"paopao": {
				"color": [
					{ "time": 0, "color": "ffffff4f", "curve": "stepped" },
					{ "time": 0.2667, "color": "ffffff4f" },
					{ "time": 0.4667, "color": "ffffff00", "curve": "stepped" },
					{ "time": 0.5, "color": "ffffff00" },
					{ "time": 0.7, "color": "ffffff4f", "curve": "stepped" },
					{ "time": 1.5, "color": "ffffff4f" }
				]
			},
			"paopao2": {
				"color": [
					{ "time": 0, "color": "ffffff00" },
					{ "time": 0.2, "color": "ffffff78", "curve": "stepped" },
					{ "time": 1.3, "color": "ffffff78" },
					{ "time": 1.5, "color": "ffffff00" }
				]
			},
			"paopao3": {
				"color": [
					{ "time": 0, "color": "ffffffff", "curve": "stepped" },
					{ "time": 0.9, "color": "ffffffff" },
					{ "time": 1.1, "color": "ffffff00", "curve": "stepped" },
					{ "time": 1.1333, "color": "ffffff00" },
					{ "time": 1.3333, "color": "ffffffff", "curve": "stepped" },
					{ "time": 1.5, "color": "ffffffff" }
				]
			},
			"paopao4": {
				"color": [
					{ "time": 0, "color": "ffffff64", "curve": "stepped" },
					{ "time": 0.5667, "color": "ffffff64" },
					{ "time": 0.7667, "color": "ffffff00", "curve": "stepped" },
					{ "time": 0.8, "color": "ffffff00" },
					{ "time": 1, "color": "ffffff64", "curve": "stepped" },
					{ "time": 1.5, "color": "ffffff64" }
				]
			}
		},
		"bones": {
			"ground": {
				"rotate": [
					{ "time": 0, "angle": 0, "curve": "stepped" },
					{ "time": 1.5, "angle": 0 }
				],
				"translate": [
					{ "time": 0, "x": 0, "y": 0, "curve": "stepped" },
					{ "time": 1.5, "x": 0, "y": 0 }
				],
				"scale": [
					{ "time": 0, "x": 1, "y": 1, "curve": "stepped" },
					{ "time": 1.5, "x": 1, "y": 1 }
				]
			},
			"anim_0": {
				"rotate": [
					{ "time": 0, "angle": 0, "curve": "stepped" },
					{ "time": 0.7333, "angle": 0, "curve": "stepped" },
					{ "time": 1.5, "angle": 0 }
				],
				"translate": [
					{ "time": 0, "x": 0, "y": 0 },
					{ "time": 0.7333, "x": 2.3, "y": -0.02 },
					{ "time": 1.5, "x": 0, "y": 0 }
				],
				"scale": [
					{ "time": 0, "x": 1, "y": 1 },
					{ "time": 0.7333, "x": 1.05, "y": 1 },
					{ "time": 1.5, "x": 1, "y": 1 }
				]
			},
			"anim_2": {
				"rotate": [
					{ "time": 0, "angle": 0, "curve": "stepped" },
					{ "time": 0.7333, "angle": 0, "curve": "stepped" },
					{ "time": 1.5, "angle": 0 }
				],
				"translate": [
					{ "time": 0, "x": 0, "y": 0, "curve": "stepped" },
					{ "time": 0.7333, "x": 0, "y": 0, "curve": "stepped" },
					{ "time": 1.5, "x": 0, "y": 0 }
				],
				"scale": [
					{ "time": 0, "x": 1, "y": 1 },
					{ "time": 0.7333, "x": 0.8, "y": 0.8 },
					{ "time": 1.5, "x": 1, "y": 1 }
				]
			},
			"paopao3": {
				"rotate": [
					{ "time": 0, "angle": 0, "curve": "stepped" },
					{ "time": 1.1, "angle": 0, "curve": "stepped" },
					{ "time": 1.1333, "angle": 0, "curve": "stepped" },
					{ "time": 1.5, "angle": 0 }
				],
				"translate": [
					{ "time": 0, "x": 7.07, "y": -0.27 },
					{ "time": 1.1, "x": 28.93, "y": -1.1 },
					{ "time": 1.1333, "x": 0, "y": 0 },
					{ "time": 1.5, "x": 7.07, "y": -0.27 }
				],
				"scale": [
					{ "time": 0, "x": 1, "y": 1, "curve": "stepped" },
					{ "time": 1.1, "x": 1, "y": 1, "curve": "stepped" },
					{ "time": 1.1333, "x": 1, "y": 1, "curve": "stepped" },
					{ "time": 1.5, "x": 1, "y": 1 }
				]
			},
			"paopao4": {
				"rotate": [
					{ "time": 0, "angle": 0, "curve": "stepped" },
					{ "time": 0.7667, "angle": 0, "curve": "stepped" },
					{ "time": 0.8, "angle": 0, "curve": "stepped" },
					{ "time": 1.5, "angle": 0 }
				],
				"translate": [
					{ "time": 0, "x": 11.76, "y": 0.13 },
					{ "time": 0.7667, "x": 25.2, "y": 0.28 },
					{ "time": 0.8, "x": 0, "y": 0 },
					{ "time": 1.5, "x": 11.76, "y": 0.13 }
				],
				"scale": [
					{ "time": 0, "x": 1, "y": 1, "curve": "stepped" },
					{ "time": 0.7667, "x": 1, "y": 1, "curve": "stepped" },
					{ "time": 0.8, "x": 1, "y": 1, "curve": "stepped" },
					{ "time": 1.5, "x": 1, "y": 1 }
				]
			},
			"paopao": {
				"rotate": [
					{ "time": 0, "angle": 0, "curve": "stepped" },
					{ "time": 0.4667, "angle": 0, "curve": "stepped" },
					{ "time": 0.5, "angle": 0, "curve": "stepped" },
					{ "time": 1.5, "angle": 0 }
				],
				"translate": [
					{ "time": 0, "x": -16.52, "y": -3.68 },
					{ "time": 0.4667, "x": -7.69, "y": -4.39 },
					{ "time": 0.5, "x": -34.2, "y": -2.25 },
					{ "time": 1.5, "x": -16.52, "y": -3.68 }
				],
				"scale": [
					{ "time": 0, "x": 1, "y": 1, "curve": "stepped" },
					{ "time": 0.4667, "x": 1, "y": 1, "curve": "stepped" },
					{ "time": 0.5, "x": 1, "y": 1, "curve": "stepped" },
					{ "time": 1.5, "x": 1, "y": 1 }
				]
			},
			"paopao2": {
				"rotate": [
					{ "time": 0, "angle": 0, "curve": "stepped" },
					{ "time": 1.5, "angle": 0 }
				],
				"translate": [
					{ "time": 0, "x": -28.42, "y": -1.32 },
					{ "time": 1.5, "x": 0, "y": 0 }
				],
				"scale": [
					{ "time": 0, "x": 1, "y": 1, "curve": "stepped" },
					{ "time": 1.5, "x": 1, "y": 1 }
				]
			}
		}
	}
}
}