{
"skeleton": { "hash": "X/WVNW5ChviYpd1kejQi+RU1oC8", "spine": "3.6.53", "width": 663.66, "height": 924.34, "images": "./images/" },
"bones": [
	{ "name": "root" },
	{ "name": "bone", "parent": "root", "x": 0.32, "y": -0.9 },
	{ "name": "panel_curtain2", "parent": "root", "length": 85.39, "rotation": -179.08, "x": 16.08, "y": 1070.05 },
	{ "name": "panel_curtain4", "parent": "root", "length": 150.07, "rotation": -1.01, "x": 13.99, "y": 1070.32 },
	{ "name": "panel_curtain8", "parent": "bone", "length": 864.47, "rotation": -90, "x": 11.13, "y": 1068.21 },
	{ "name": "panel_title", "parent": "root", "x": 10.87, "y": 1079.41 }
],
"slots": [
	{ "name": "panel_curtain3", "bone": "panel_curtain8", "attachment": "panel_curtain" },
	{ "name": "panel_curtain5", "bone": "panel_curtain8", "attachment": "panel_curtain" },
	{ "name": "panel_curtain7", "bone": "panel_curtain8", "attachment": "panel_curtain" },
	{ "name": "panel_curtain8", "bone": "panel_curtain8", "attachment": "panel_curtain" },
	{ "name": "panel_curtain6", "bone": "panel_curtain8", "attachment": "panel_curtain" },
	{ "name": "icon_curtain_0", "bone": "panel_curtain8", "attachment": "icon_curtain_0" },
	{ "name": "icon_curtain_4", "bone": "panel_curtain8", "attachment": "icon_curtain_0" },
	{ "name": "icon_curtain_5", "bone": "panel_curtain8", "attachment": "icon_curtain_0" },
	{ "name": "icon_curtain_6", "bone": "panel_curtain8", "attachment": "icon_curtain_0" },
	{ "name": "icon_curtain_1", "bone": "panel_curtain8", "attachment": "icon_curtain_1" },
	{ "name": "icon_curtain_7", "bone": "panel_curtain8", "attachment": "icon_curtain_1" },
	{ "name": "icon_curtain_8", "bone": "panel_curtain8", "attachment": "icon_curtain_1" },
	{ "name": "icon_curtain_9", "bone": "panel_curtain8", "attachment": "icon_curtain_1" },
	{ "name": "icon_curtain_2", "bone": "panel_curtain8", "attachment": "icon_curtain_2" },
	{ "name": "icon_curtain_3", "bone": "panel_curtain8", "attachment": "icon_curtain_2" },
	{ "name": "panel_curtain0", "bone": "panel_curtain8", "attachment": "panel_curtain0" },
	{ "name": "panel_curtain1", "bone": "panel_curtain8", "attachment": "panel_curtain1" },
	{ "name": "panel_curtain2", "bone": "panel_curtain2", "attachment": "panel_curtain2" },
	{ "name": "panel_curtain4", "bone": "panel_curtain4", "attachment": "panel_curtain2" },
	{ "name": "panel_title", "bone": "panel_title", "attachment": "panel_title" }
],
"skins": {
	"default": {
		"icon_curtain_0": {
			"icon_curtain_0": { "x": 95.76, "y": -258.93, "rotation": 90, "width": 74, "height": 78 }
		},
		"icon_curtain_1": {
			"icon_curtain_1": { "x": 95.51, "y": -124.32, "rotation": 90, "width": 82, "height": 78 }
		},
		"icon_curtain_2": {
			"icon_curtain_2": { "x": 794.31, "y": 1.8, "rotation": 90, "width": 106, "height": 116 }
		},
		"icon_curtain_3": {
			"icon_curtain_2": { "x": 95.04, "y": 3.77, "rotation": 90, "width": 106, "height": 116 }
		},
		"icon_curtain_4": {
			"icon_curtain_0": { "x": 95.76, "y": 268.4, "rotation": 90, "width": 74, "height": 78 }
		},
		"icon_curtain_5": {
			"icon_curtain_0": { "x": 794.4, "y": 267.08, "rotation": 90, "width": 74, "height": 78 }
		},
		"icon_curtain_6": {
			"icon_curtain_0": { "x": 794.26, "y": -258.46, "rotation": 90, "width": 74, "height": 78 }
		},
		"icon_curtain_7": {
			"icon_curtain_1": { "x": 94.91, "y": 137.37, "rotation": 90, "width": 82, "height": 78 }
		},
		"icon_curtain_8": {
			"icon_curtain_1": { "x": 793.34, "y": 136.39, "rotation": 90, "width": 82, "height": 78 }
		},
		"icon_curtain_9": {
			"icon_curtain_1": { "x": 793.94, "y": -123.14, "rotation": 90, "width": 82, "height": 78 }
		},
		"panel_curtain0": {
			"panel_curtain0": { "x": 181.73, "y": 3.39, "scaleX": 2.4, "scaleY": 2.4, "rotation": 90, "width": 216, "height": 44 }
		},
		"panel_curtain1": {
			"panel_curtain1": { "x": 446.56, "y": -0.71, "scaleX": 4.5, "scaleY": 4.5, "rotation": 90, "width": 100, "height": 78 }
		},
		"panel_curtain2": {
			"panel_curtain2": { "x": 167.49, "y": 2.13, "rotation": 179.08, "width": 333, "height": 54 }
		},
		"panel_curtain3": {
			"panel_curtain": { "x": 444.76, "y": -258.35, "rotation": 90, "width": 128, "height": 835 }
		},
		"panel_curtain4": {
			"panel_curtain2": { "x": 165.39, "y": -2.16, "scaleX": -1, "rotation": 1.01, "width": 333, "height": 54 }
		},
		"panel_curtain5": {
			"panel_curtain": { "x": 444.81, "y": 3.21, "rotation": 90, "width": 128, "height": 835 }
		},
		"panel_curtain6": {
			"panel_curtain": { "x": 444.81, "y": -126.88, "rotation": 90, "width": 128, "height": 835 }
		},
		"panel_curtain7": {
			"panel_curtain": { "x": 444.81, "y": 134.06, "rotation": 90, "width": 128, "height": 835 }
		},
		"panel_curtain8": {
			"panel_curtain": { "x": 444.81, "y": 264.91, "rotation": 90, "width": 128, "height": 835 }
		},
		"panel_title": {
			"panel_title": { "x": 9.12, "y": 0.93, "width": 517, "height": 98 }
		}
	}
},
"animations": {
	"idle": {
		"bones": {
			"panel_curtain8": {
				"rotate": [
					{ "time": 0, "angle": 0 }
				],
				"translate": [
					{ "time": 0, "x": 0, "y": 0 }
				],
				"scale": [
					{ "time": 0, "x": 1, "y": 1 }
				]
			},
			"panel_curtain2": {
				"rotate": [
					{ "time": 0, "angle": 0 }
				],
				"translate": [
					{ "time": 0, "x": 0, "y": 0 }
				],
				"scale": [
					{ "time": 0, "x": 1, "y": 1 }
				]
			},
			"panel_curtain4": {
				"rotate": [
					{ "time": 0, "angle": 0 }
				],
				"translate": [
					{ "time": 0, "x": 0, "y": 0 }
				],
				"scale": [
					{ "time": 0, "x": 1, "y": 1 }
				]
			},
			"panel_title": {
				"rotate": [
					{ "time": 0, "angle": 0 }
				],
				"translate": [
					{ "time": 0, "x": 0, "y": 0 }
				],
				"scale": [
					{ "time": 0, "x": 1, "y": 1 }
				]
			}
		}
	},
	"open": {
		"bones": {
			"panel_curtain8": {
				"rotate": [
					{ "time": 0, "angle": 0, "curve": "stepped" },
					{ "time": 0.0667, "angle": 0, "curve": "stepped" },
					{ "time": 0.1667, "angle": 0, "curve": "stepped" },
					{ "time": 0.2667, "angle": 0 }
				],
				"translate": [
					{ "time": 0, "x": 0, "y": 0, "curve": "stepped" },
					{ "time": 0.0667, "x": 0, "y": 0, "curve": "stepped" },
					{ "time": 0.1667, "x": 0, "y": 0, "curve": "stepped" },
					{ "time": 0.2667, "x": 0, "y": 0 }
				],
				"scale": [
					{ "time": 0, "x": 0, "y": 1, "curve": "stepped" },
					{ "time": 0.0667, "x": 0, "y": 1 },
					{ "time": 0.1667, "x": 1.05, "y": 1 },
					{ "time": 0.2667, "x": 1, "y": 1 }
				]
			},
			"panel_curtain2": {
				"rotate": [
					{ "time": 0, "angle": 0, "curve": "stepped" },
					{ "time": 0.1, "angle": 0 }
				],
				"translate": [
					{ "time": 0, "x": 0, "y": 0, "curve": "stepped" },
					{ "time": 0.1, "x": 0, "y": 0 }
				],
				"scale": [
					{ "time": 0, "x": 0, "y": 1 },
					{ "time": 0.1, "x": 1, "y": 1 }
				]
			},
			"panel_title": {
				"rotate": [
					{ "time": 0, "angle": 0, "curve": "stepped" },
					{ "time": 0.0667, "angle": 0, "curve": "stepped" },
					{ "time": 0.2333, "angle": 0, "curve": "stepped" },
					{ "time": 0.3667, "angle": 0, "curve": "stepped" },
					{ "time": 0.5, "angle": 0 }
				],
				"translate": [
					{ "time": 0, "x": 0, "y": 0, "curve": "stepped" },
					{ "time": 0.0667, "x": 0, "y": 0 },
					{ "time": 0.2333, "x": 0, "y": 16.34 },
					{ "time": 0.3667, "x": 0, "y": -3.92 },
					{ "time": 0.5, "x": 0, "y": 0 }
				],
				"scale": [
					{ "time": 0, "x": 0, "y": 0, "curve": "stepped" },
					{ "time": 0.0667, "x": 0, "y": 0 },
					{ "time": 0.2333, "x": 1.1, "y": 1.2 },
					{ "time": 0.3667, "x": 1, "y": 0.95 },
					{ "time": 0.5, "x": 1, "y": 1 }
				]
			},
			"panel_curtain4": {
				"rotate": [
					{ "time": 0, "angle": 0, "curve": "stepped" },
					{ "time": 0.1, "angle": 0 }
				],
				"translate": [
					{ "time": 0, "x": 0, "y": 0, "curve": "stepped" },
					{ "time": 0.1, "x": 0, "y": 0 }
				],
				"scale": [
					{ "time": 0, "x": 0, "y": 1 },
					{ "time": 0.1, "x": 1, "y": 1 }
				]
			}
		}
	}
}
}