info face="Arial" size=32 bold=0 italic=0 charset="" unicode=1 stretchH=100 smooth=1 aa=1 padding=0,0,0,0 spacing=1,1 outline=0
common lineHeight=32 base=26 scaleW=256 scaleH=256 pages=1 packed=0 alphaChnl=2 redChnl=2 greenChnl=2 blueChnl=2
page id=0 file="fnt_move.png_0.png"
chars count=10
char id=48   x=0     y=0     width=59    height=63    xoffset=0     yoffset=0     xadvance=59    page=0  chnl=15
char id=49   x=210   y=64    width=34    height=62    xoffset=0     yoffset=0     xadvance=34    page=0  chnl=15
char id=50   x=155   y=64    width=54    height=62    xoffset=0     yoffset=0     xadvance=54    page=0  chnl=15
char id=51   x=0     y=128   width=50    height=62    xoffset=0     yoffset=0     xadvance=50    page=0  chnl=15
char id=52   x=60    y=0     width=55    height=63    xoffset=0     yoffset=0     xadvance=55    page=0  chnl=15
char id=53   x=0     y=64    width=52    height=63    xoffset=0     yoffset=0     xadvance=52    page=0  chnl=15
char id=54   x=116   y=0     width=54    height=63    xoffset=0     yoffset=0     xadvance=54    page=0  chnl=15
char id=55   x=105   y=64    width=49    height=63    xoffset=0     yoffset=0     xadvance=49    page=0  chnl=15
char id=56   x=53    y=64    width=51    height=63    xoffset=0     yoffset=0     xadvance=51    page=0  chnl=15
char id=57   x=171   y=0     width=54    height=63    xoffset=0     yoffset=0     xadvance=54    page=0  chnl=15
