{
"skeleton": { "hash": "Vv04ZVs+EbLE94TrlRMt4EJexUo", "spine": "3.6.53", "width": 678, "height": 320, "images": "./images/" },
"bones": [
	{ "name": "root" },
	{ "name": "fonts", "parent": "root", "x": -9.58, "y": -69.38 },
	{ "name": "heart", "parent": "root", "x": 1.14, "y": 46.84 },
	{ "name": "heart0", "parent": "root", "x": -11.37, "y": 164.85 },
	{ "name": "heart1", "parent": "root", "x": -124.02, "y": 93.33 },
	{ "name": "heart2", "parent": "root", "x": 155.81, "y": 32.53 },
	{ "name": "heartup", "parent": "root", "length": 103.7, "rotation": 90, "x": 78.03, "y": 29.85 },
	{ "name": "light", "parent": "root", "x": 6.51, "y": 73.66 },
	{ "name": "panel_max", "parent": "root", "length": 15, "x": -0.31, "y": -2.03 }
],
"slots": [
	{ "name": "panel_max", "bone": "panel_max", "attachment": "panel_max" },
	{ "name": "light", "bone": "light", "attachment": "light" },
	{ "name": "heart", "bone": "heart", "attachment": "heart" },
	{ "name": "heart0", "bone": "heart0", "attachment": "heart0" },
	{ "name": "heart1", "bone": "heart1", "attachment": "heart1" },
	{ "name": "heart2", "bone": "heart2", "attachment": "heart2" },
	{ "name": "fonts", "bone": "fonts", "attachment": "fonts" },
	{ "name": "heartup", "bone": "heartup", "attachment": "heartup" }
],
"skins": {
	"default": {
		"fonts": {
			"fonts": { "x": -2.03, "y": 1.44, "width": 409, "height": 59 }
		},
		"heart": {
			"heart": { "x": 1.74, "y": -2.78, "width": 190, "height": 157 }
		},
		"heart0": {
			"heart0": { "x": -0.24, "y": 1.22, "width": 49, "height": 43 }
		},
		"heart1": {
			"heart1": { "x": -1.1, "y": 2.74, "width": 76, "height": 67 }
		},
		"heart2": {
			"heart2": { "x": 2.58, "y": 3.03, "width": 61, "height": 56 }
		},
		"heartup": {
			"heartup": { "x": 55.21, "y": 0.64, "rotation": -90, "width": 105, "height": 157 }
		},
		"light": {
			"light": { "x": 2.38, "y": -0.1, "width": 270, "height": 270 }
		},
		"panel_max": {
			"panel_max": { "x": 0.2, "y": 3.09, "width": 678, "height": 225 }
		}
	}
},
"animations": {
	"animation": {
		"slots": {
			"fonts": {
				"color": [
					{ "time": 0, "color": "ffffffff", "curve": "stepped" },
					{ "time": 2.7, "color": "ffffffff", "curve": "stepped" },
					{ "time": 2.8333, "color": "ffffffff", "curve": "stepped" },
					{ "time": 3.0667, "color": "ffffffff" },
					{ "time": 3.1667, "color": "ffffff00" }
				]
			},
			"heart": {
				"color": [
					{ "time": 2.8333, "color": "ffffffff" },
					{ "time": 2.9667, "color": "ffffff00" }
				]
			},
			"heart0": {
				"color": [
					{ "time": 2.8333, "color": "ffffffff" },
					{ "time": 2.9667, "color": "ffffff00" }
				]
			},
			"heart1": {
				"color": [
					{ "time": 2.8333, "color": "ffffffff" },
					{ "time": 2.9667, "color": "ffffff00" }
				]
			},
			"heart2": {
				"color": [
					{ "time": 2.8333, "color": "ffffffff" },
					{ "time": 2.9667, "color": "ffffff00" }
				]
			},
			"heartup": {
				"color": [
					{ "time": 0, "color": "ffffffff", "curve": "stepped" },
					{ "time": 0.2, "color": "ffffffff", "curve": "stepped" },
					{ "time": 0.3667, "color": "ffffffff" },
					{ "time": 0.7, "color": "ffffffb0" },
					{ "time": 1.0333, "color": "ffffffff" },
					{ "time": 1.3667, "color": "ffffffb0" },
					{ "time": 1.7, "color": "ffffffff" },
					{ "time": 2.0333, "color": "ffffffb0" },
					{ "time": 2.3667, "color": "ffffffff" },
					{ "time": 2.7, "color": "ffffffb0", "curve": "stepped" },
					{ "time": 2.8333, "color": "ffffffb0" },
					{ "time": 2.9667, "color": "ffffff00" }
				]
			},
			"light": {
				"color": [
					{ "time": 2.8333, "color": "ffffffff" },
					{ "time": 2.9667, "color": "ffffff00" }
				]
			},
			"panel_max": {
				"color": [
					{ "time": 2.8333, "color": "ffffffff" },
					{ "time": 2.9667, "color": "ffffff00" }
				]
			}
		},
		"bones": {
			"panel_max": {
				"rotate": [
					{ "time": 0, "angle": 0, "curve": "stepped" },
					{ "time": 0.1, "angle": 0 }
				],
				"translate": [
					{ "time": 0, "x": 0, "y": 0, "curve": "stepped" },
					{ "time": 0.1, "x": 0, "y": 0 }
				],
				"scale": [
					{ "time": 0, "x": 0, "y": 1 },
					{ "time": 0.1, "x": 1, "y": 1 }
				]
			},
			"heart": {
				"rotate": [
					{ "time": 0, "angle": 0, "curve": "stepped" },
					{ "time": 0.1, "angle": 0, "curve": "stepped" },
					{ "time": 0.2333, "angle": 0, "curve": "stepped" },
					{ "time": 0.3667, "angle": 0, "curve": "stepped" },
					{ "time": 2.8333, "angle": 0, "curve": "stepped" },
					{ "time": 2.9667, "angle": 0 }
				],
				"translate": [
					{ "time": 0, "x": 0, "y": 0, "curve": "stepped" },
					{ "time": 0.1, "x": 0, "y": 0, "curve": "stepped" },
					{ "time": 0.2333, "x": 0, "y": 0, "curve": "stepped" },
					{ "time": 0.3667, "x": 0, "y": 0, "curve": "stepped" },
					{ "time": 2.8333, "x": 0, "y": 0, "curve": "stepped" },
					{ "time": 2.9667, "x": 0, "y": 0 }
				],
				"scale": [
					{ "time": 0, "x": 0, "y": 0, "curve": "stepped" },
					{ "time": 0.1, "x": 0, "y": 0 },
					{ "time": 0.2333, "x": 1.1, "y": 1.1 },
					{ "time": 0.3667, "x": 1, "y": 1, "curve": "stepped" },
					{ "time": 2.8333, "x": 1, "y": 1, "curve": "stepped" },
					{ "time": 2.9667, "x": 1, "y": 1 }
				]
			},
			"heart1": {
				"rotate": [
					{ "time": 0, "angle": 0, "curve": "stepped" },
					{ "time": 0.1333, "angle": 0, "curve": "stepped" },
					{ "time": 0.3, "angle": 0 }
				],
				"translate": [
					{ "time": 0, "x": 0, "y": 0, "curve": "stepped" },
					{ "time": 0.1333, "x": 0, "y": 0, "curve": "stepped" },
					{ "time": 0.3, "x": 0, "y": 0 }
				],
				"scale": [
					{ "time": 0, "x": 0, "y": 0, "curve": "stepped" },
					{ "time": 0.1333, "x": 0, "y": 0 },
					{ "time": 0.3, "x": 1, "y": 1 }
				]
			},
			"heart0": {
				"rotate": [
					{ "time": 0, "angle": 0, "curve": "stepped" },
					{ "time": 0.3, "angle": 0, "curve": "stepped" },
					{ "time": 0.4333, "angle": 0, "curve": "stepped" },
					{ "time": 0.6, "angle": 0 }
				],
				"translate": [
					{ "time": 0, "x": 0, "y": 0, "curve": "stepped" },
					{ "time": 0.3, "x": 0, "y": 0, "curve": "stepped" },
					{ "time": 0.4333, "x": 0, "y": 0, "curve": "stepped" },
					{ "time": 0.6, "x": 0, "y": 0 }
				],
				"scale": [
					{ "time": 0, "x": 0, "y": 0, "curve": "stepped" },
					{ "time": 0.3, "x": 0, "y": 0 },
					{ "time": 0.4333, "x": 1.1, "y": 1.1 },
					{ "time": 0.6, "x": 1, "y": 1 }
				]
			},
			"heart2": {
				"rotate": [
					{ "time": 0, "angle": 0, "curve": "stepped" },
					{ "time": 0.2333, "angle": 0, "curve": "stepped" },
					{ "time": 0.3667, "angle": 0, "curve": "stepped" },
					{ "time": 0.5, "angle": 0 }
				],
				"translate": [
					{ "time": 0, "x": 0, "y": 0, "curve": "stepped" },
					{ "time": 0.2333, "x": 0, "y": 0, "curve": "stepped" },
					{ "time": 0.3667, "x": 0, "y": 0, "curve": "stepped" },
					{ "time": 0.5, "x": 0, "y": 0 }
				],
				"scale": [
					{ "time": 0, "x": 0, "y": 0, "curve": "stepped" },
					{ "time": 0.2333, "x": 0, "y": 0 },
					{ "time": 0.3667, "x": 1.1, "y": 1.1 },
					{ "time": 0.5, "x": 1, "y": 1 }
				]
			},
			"fonts": {
				"rotate": [
					{ "time": 0, "angle": 0, "curve": "stepped" },
					{ "time": 0.1667, "angle": 0, "curve": "stepped" },
					{ "time": 0.3333, "angle": 0, "curve": "stepped" },
					{ "time": 0.5, "angle": 0, "curve": "stepped" },
					{ "time": 2.7, "angle": 0, "curve": "stepped" },
					{ "time": 2.8333, "angle": 0, "curve": "stepped" },
					{ "time": 3, "angle": 0, "curve": "stepped" },
					{ "time": 3.1667, "angle": 0 }
				],
				"translate": [
					{ "time": 0, "x": 0, "y": 0 },
					{ "time": 0.1667, "x": -3.71, "y": 73.23 },
					{ "time": 0.3333, "x": 0, "y": 0, "curve": "stepped" },
					{ "time": 0.5, "x": 0, "y": 0, "curve": "stepped" },
					{ "time": 2.7, "x": 0, "y": 0 },
					{ "time": 2.8333, "x": 0, "y": -11.86 },
					{ "time": 3.1667, "x": 0, "y": 249.14 }
				],
				"scale": [
					{ "time": 0, "x": 0, "y": 0, "curve": "stepped" },
					{ "time": 0.1667, "x": 0, "y": 0 },
					{ "time": 0.3333, "x": 1.1, "y": 1.1 },
					{ "time": 0.5, "x": 1, "y": 1, "curve": "stepped" },
					{ "time": 2.7, "x": 1, "y": 1, "curve": "stepped" },
					{ "time": 2.8333, "x": 1, "y": 1 },
					{ "time": 3, "x": 1.3, "y": 1.3 }
				]
			},
			"light": {
				"rotate": [
					{ "time": 0, "angle": 0, "curve": "stepped" },
					{ "time": 0.0667, "angle": 0, "curve": "stepped" },
					{ "time": 0.2, "angle": 0 },
					{ "time": 1.5333, "angle": 180 },
					{ "time": 2.8333, "angle": 0 }
				],
				"translate": [
					{ "time": 0, "x": 0, "y": 0, "curve": "stepped" },
					{ "time": 0.0667, "x": 0, "y": 0, "curve": "stepped" },
					{ "time": 0.2, "x": 0, "y": 0, "curve": "stepped" },
					{ "time": 1.5333, "x": 0, "y": 0, "curve": "stepped" },
					{ "time": 2.8333, "x": 0, "y": 0 }
				],
				"scale": [
					{ "time": 0, "x": 0, "y": 0, "curve": "stepped" },
					{ "time": 0.0667, "x": 0, "y": 0 },
					{ "time": 0.2, "x": 1, "y": 1, "curve": "stepped" },
					{ "time": 1.5333, "x": 1, "y": 1, "curve": "stepped" },
					{ "time": 2.8333, "x": 1, "y": 1 }
				]
			},
			"heartup": {
				"rotate": [
					{ "time": 0, "angle": 0, "curve": "stepped" },
					{ "time": 0.2, "angle": 0, "curve": "stepped" },
					{ "time": 0.3667, "angle": 0, "curve": "stepped" },
					{ "time": 0.7, "angle": 0, "curve": "stepped" },
					{ "time": 1.0333, "angle": 0, "curve": "stepped" },
					{ "time": 1.3667, "angle": 0, "curve": "stepped" },
					{ "time": 1.7, "angle": 0, "curve": "stepped" },
					{ "time": 2.0333, "angle": 0, "curve": "stepped" },
					{ "time": 2.3667, "angle": 0, "curve": "stepped" },
					{ "time": 2.7, "angle": 0 }
				],
				"translate": [
					{ "time": 0, "x": 0, "y": 0, "curve": "stepped" },
					{ "time": 0.2, "x": 0, "y": 0 },
					{ "time": 0.3667, "x": 0.73, "y": 18.92 },
					{ "time": 0.7, "x": 0, "y": 0 },
					{ "time": 1.0333, "x": 0.73, "y": 18.92 },
					{ "time": 1.3667, "x": 0, "y": 0 },
					{ "time": 1.7, "x": 0.73, "y": 18.92 },
					{ "time": 2.0333, "x": 0, "y": 0 },
					{ "time": 2.3667, "x": 0.73, "y": 18.92 },
					{ "time": 2.7, "x": 0, "y": 0 }
				],
				"scale": [
					{ "time": 0, "x": 0, "y": 1, "curve": "stepped" },
					{ "time": 0.2, "x": 0, "y": 1 },
					{ "time": 0.3667, "x": 1, "y": 1, "curve": "stepped" },
					{ "time": 0.7, "x": 1, "y": 1, "curve": "stepped" },
					{ "time": 1.0333, "x": 1, "y": 1, "curve": "stepped" },
					{ "time": 1.3667, "x": 1, "y": 1, "curve": "stepped" },
					{ "time": 1.7, "x": 1, "y": 1, "curve": "stepped" },
					{ "time": 2.0333, "x": 1, "y": 1, "curve": "stepped" },
					{ "time": 2.3667, "x": 1, "y": 1, "curve": "stepped" },
					{ "time": 2.7, "x": 1, "y": 1 }
				]
			}
		}
	}
}
}