{
"skeleton": { "hash": "81E2vnwdSpRtX4cWmWih21bkcyk", "spine": "3.6.53", "width": 323.18, "height": 236.58, "images": "" },
"bones": [
	{ "name": "root", "rotation": 0.03 },
	{ "name": "all", "parent": "root" },
	{ "name": "crash_20003_bg", "parent": "all", "color": "ff0000ff" },
	{ "name": "image/crash_20003_0", "parent": "root", "x": -62.44, "y": 40.69 },
	{ "name": "image/crash_20003_1", "parent": "all", "x": -67.3, "y": -59.18, "color": "8f8c8cff" },
	{ "name": "image/crash_20003_2", "parent": "all", "x": -61.24, "y": -143.53 },
	{ "name": "image/crash_20003_3", "parent": "all", "x": 3.5, "y": -94.51 },
	{ "name": "image/crash_20003_4", "parent": "all", "x": -4.57, "y": 68.53 },
	{ "name": "image/crash_20003_5", "parent": "all", "x": 157.92, "y": -95.2 },
	{ "name": "image/crash_20003_6", "parent": "all", "x": 109.15, "y": -105.4 },
	{ "name": "image/crash_20003_7", "parent": "all", "x": -116.49, "y": -78.28 },
	{ "name": "image/crash_20003_8", "parent": "all", "x": 107.42, "y": 39.98 },
	{ "name": "image/crash_20003_9", "parent": "all", "x": -94.86, "y": -34.62 },
	{ "name": "image/crash_20003_10", "parent": "all", "x": 158.24, "y": -0.76 }
],
"slots": [
	{ "name": "crash_20003_bg", "bone": "crash_20003_bg" },
	{ "name": "image/crash_20003_8", "bone": "image/crash_20003_8", "attachment": "image/crash_20003_0" },
	{ "name": "image/crash_20003_9", "bone": "image/crash_20003_9", "attachment": "image/crash_20003_0" },
	{ "name": "image/crash_20003_10", "bone": "image/crash_20003_10", "attachment": "image/crash_20003_0" },
	{ "name": "image/crash_20003_7", "bone": "image/crash_20003_7", "attachment": "image/crash_20003_0" },
	{ "name": "image/crash_20003_5", "bone": "image/crash_20003_5", "attachment": "image/crash_20003_0" },
	{ "name": "image/crash_20003_4", "bone": "image/crash_20003_4", "attachment": "image/crash_20003_0" },
	{ "name": "image/crash_20003_3", "bone": "image/crash_20003_3", "attachment": "image/crash_20003_0" },
	{ "name": "image/crash_20003_2", "bone": "image/crash_20003_2", "attachment": "image/crash_20003_0" },
	{ "name": "image/crash_20003_6", "bone": "image/crash_20003_6", "attachment": "image/crash_20003_0" },
	{ "name": "image/crash_20003_0", "bone": "image/crash_20003_0", "attachment": "image/crash_20003_0" },
	{ "name": "image/crash_20003_1", "bone": "image/crash_20003_1", "attachment": "image/crash_20003_0" }
],
"skins": {
	"default": {
		"image/crash_20003_0": {
			"image/crash_20003_0": { "x": -0.22, "y": -1.71, "scaleX": 0.9, "scaleY": 0.9, "rotation": 24.28, "width": 60, "height": 57 }
		},
		"image/crash_20003_1": {
			"image/crash_20003_0": { "x": 0.03, "y": -0.65, "scaleX": 0.2, "scaleY": 0.2, "width": 60, "height": 57 }
		},
		"image/crash_20003_10": {
			"image/crash_20003_0": { "x": 0.53, "y": -1.14, "scaleX": 0.6, "scaleY": 0.6, "rotation": -32.89, "width": 60, "height": 57 }
		},
		"image/crash_20003_2": {
			"image/crash_20003_0": { "x": 0.56, "y": 0.04, "scaleX": 0.5, "scaleY": 0.5, "width": 60, "height": 57 }
		},
		"image/crash_20003_3": {
			"image/crash_20003_0": { "x": 1.05, "y": -0.4, "scaleX": 0.7, "scaleY": 0.7, "rotation": 21.44, "width": 60, "height": 57 }
		},
		"image/crash_20003_4": {
			"image/crash_20003_0": { "x": 0.65, "y": 0.28, "scaleX": 0.35, "scaleY": 0.35, "width": 60, "height": 57 }
		},
		"image/crash_20003_5": {
			"image/crash_20003_0": { "x": -8.6, "y": 5.77, "scaleX": 0.2, "scaleY": 0.2, "width": 60, "height": 57 }
		},
		"image/crash_20003_6": {
			"image/crash_20003_0": { "x": 0.07, "y": -1, "rotation": -30.98, "width": 60, "height": 57 }
		},
		"image/crash_20003_7": {
			"image/crash_20003_0": { "x": 1.24, "y": 0.35, "scaleX": 0.6, "scaleY": 0.69, "rotation": 25.96, "width": 60, "height": 57 }
		},
		"image/crash_20003_8": {
			"image/crash_20003_0": { "x": 0.74, "y": -1.1, "scaleX": 0.3, "scaleY": 0.3, "rotation": 36.89, "width": 60, "height": 57 }
		},
		"image/crash_20003_9": {
			"image/crash_20003_0": { "x": 0.91, "y": -0.7, "scaleX": 0.4, "scaleY": 0.4, "rotation": 17.21, "width": 60, "height": 57 }
		}
	}
},
"animations": {
	"start": {
		"slots": {
			"image/crash_20003_0": {
				"color": [
					{ "time": 0, "color": "ffffff00" },
					{ "time": 0.1667, "color": "ffffffff", "curve": "stepped" },
					{ "time": 0.4, "color": "ffffffff" },
					{ "time": 0.5333, "color": "ffffff00" }
				]
			},
			"image/crash_20003_1": {
				"color": [
					{ "time": 0, "color": "ffffff00" },
					{ "time": 0.0333, "color": "ffffffff", "curve": "stepped" },
					{ "time": 0.1667, "color": "ffffffff", "curve": "stepped" },
					{ "time": 0.4333, "color": "ffffffff" },
					{ "time": 0.5667, "color": "ffffff00" }
				]
			},
			"image/crash_20003_2": {
				"color": [
					{ "time": 0, "color": "ffffff00", "curve": "stepped" },
					{ "time": 0.0333, "color": "ffffff00" },
					{ "time": 0.1333, "color": "ffffffff", "curve": "stepped" },
					{ "time": 0.4333, "color": "ffffffff" },
					{ "time": 0.5333, "color": "ffffff00" }
				]
			},
			"image/crash_20003_3": {
				"color": [
					{ "time": 0, "color": "ffffff00", "curve": "stepped" },
					{ "time": 0.0333, "color": "ffffff00" }
				]
			},
			"image/crash_20003_4": {
				"color": [
					{ "time": 0, "color": "ffffff00" },
					{ "time": 0.0333, "color": "ffffffff", "curve": "stepped" },
					{ "time": 0.2, "color": "ffffffff", "curve": "stepped" },
					{ "time": 0.5, "color": "ffffffff" },
					{ "time": 0.6, "color": "ffffff00" }
				]
			},
			"image/crash_20003_5": {
				"color": [
					{ "time": 0, "color": "ffffff00", "curve": "stepped" },
					{ "time": 0.0333, "color": "ffffff00" },
					{ "time": 0.0667, "color": "ffffffff", "curve": "stepped" },
					{ "time": 0.1333, "color": "ffffffff", "curve": "stepped" },
					{ "time": 0.4667, "color": "ffffffff" },
					{ "time": 0.5667, "color": "ffffff00" }
				]
			},
			"image/crash_20003_6": {
				"color": [
					{ "time": 0, "color": "ffffff00" },
					{ "time": 0.0333, "color": "ffffffff", "curve": "stepped" },
					{ "time": 0.4667, "color": "ffffffff" },
					{ "time": 0.6333, "color": "ffffff00" }
				]
			},
			"image/crash_20003_7": {
				"color": [
					{ "time": 0, "color": "ffffff00", "curve": "stepped" },
					{ "time": 0.0667, "color": "ffffff00" },
					{ "time": 0.1, "color": "ffffffff", "curve": "stepped" },
					{ "time": 0.2333, "color": "ffffffff" },
					{ "time": 0.5333, "color": "ffffff00" }
				]
			},
			"image/crash_20003_8": {
				"color": [
					{ "time": 0, "color": "ffffff00", "curve": "stepped" },
					{ "time": 0.0333, "color": "ffffff00" },
					{ "time": 0.2, "color": "ffffffff", "curve": "stepped" },
					{ "time": 0.5, "color": "ffffffff" },
					{ "time": 0.5667, "color": "ffffff00" }
				]
			},
			"image/crash_20003_9": {
				"color": [
					{ "time": 0, "color": "ffffff00", "curve": "stepped" },
					{ "time": 0.0333, "color": "ffffff00" },
					{ "time": 0.0667, "color": "ffffffff", "curve": "stepped" },
					{ "time": 0.2333, "color": "ffffffff", "curve": "stepped" },
					{ "time": 0.4667, "color": "ffffffff" },
					{ "time": 0.5667, "color": "ffffff00" }
				]
			},
			"image/crash_20003_10": {
				"color": [
					{ "time": 0, "color": "ffffff00", "curve": "stepped" },
					{ "time": 0.0667, "color": "ffffff00" },
					{ "time": 0.1, "color": "ffffffff", "curve": "stepped" },
					{ "time": 0.2, "color": "ffffffff" },
					{ "time": 0.6333, "color": "ffffff00" }
				]
			}
		},
		"bones": {
			"image/crash_20003_6": {
				"rotate": [
					{ "time": 0, "angle": 0, "curve": "stepped" },
					{ "time": 0.0333, "angle": 0 },
					{ "time": 0.6333, "angle": -80.76 }
				],
				"translate": [
					{ "time": 0, "x": -77.2, "y": 136.12 },
					{ "time": 0.0333, "x": -115.31, "y": 123.28 },
					{ "time": 0.1333, "x": -63.56, "y": 229.73 },
					{ "time": 0.6333, "x": -24.17, "y": 50.72 }
				],
				"scale": [
					{ "time": 0, "x": 1, "y": 1, "curve": "stepped" },
					{ "time": 0.0333, "x": 1, "y": 1, "curve": "stepped" },
					{ "time": 0.1333, "x": 1, "y": 1 },
					{ "time": 0.6333, "x": 0.5, "y": 0.5 }
				]
			},
			"image/crash_20003_10": {
				"rotate": [
					{ "time": 0, "angle": 0, "curve": "stepped" },
					{ "time": 0.0667, "angle": 0, "curve": "stepped" },
					{ "time": 0.1, "angle": 0, "curve": "stepped" },
					{ "time": 0.2, "angle": 0 },
					{ "time": 0.6333, "angle": 69.47 }
				],
				"translate": [
					{ "time": 0, "x": -186.96, "y": 15.96, "curve": "stepped" },
					{ "time": 0.0667, "x": -186.96, "y": 15.96 },
					{ "time": 0.1, "x": -153.14, "y": 1.17 },
					{ "time": 0.2, "x": -196.87, "y": 52.46 },
					{ "time": 0.6333, "x": -302.32, "y": 3.42 }
				],
				"scale": [
					{ "time": 0, "x": 1, "y": 1, "curve": "stepped" },
					{ "time": 0.0667, "x": 1, "y": 1, "curve": "stepped" },
					{ "time": 0.1, "x": 1, "y": 1, "curve": "stepped" },
					{ "time": 0.2, "x": 1, "y": 1 },
					{ "time": 0.6333, "x": 0.3, "y": 0.3 }
				]
			},
			"image/crash_20003_8": {
				"rotate": [
					{ "time": 0, "angle": 0, "curve": "stepped" },
					{ "time": 0.0333, "angle": 0 },
					{ "time": 0.2, "angle": -80.44 },
					{ "time": 0.5667, "angle": -87.45 }
				],
				"translate": [
					{ "time": 0, "x": -81.33, "y": -66.81, "curve": "stepped" },
					{ "time": 0.0333, "x": -81.33, "y": -66.81 },
					{ "time": 0.2, "x": -63.38, "y": -8.64 },
					{ "time": 0.5667, "x": -39.31, "y": -179.69 }
				],
				"scale": [
					{ "time": 0, "x": 1, "y": 1, "curve": "stepped" },
					{ "time": 0.0333, "x": 1, "y": 1, "curve": "stepped" },
					{ "time": 0.2, "x": 1, "y": 1 },
					{ "time": 0.5667, "x": 0.7, "y": 0.7 }
				]
			},
			"image/crash_20003_5": {
				"rotate": [
					{ "time": 0, "angle": 0, "curve": "stepped" },
					{ "time": 0.0333, "angle": 0, "curve": "stepped" },
					{ "time": 0.0667, "angle": 0, "curve": "stepped" },
					{ "time": 0.1333, "angle": 0, "curve": "stepped" },
					{ "time": 0.5667, "angle": 0 }
				],
				"translate": [
					{ "time": 0, "x": -204.87, "y": 161.96, "curve": "stepped" },
					{ "time": 0.0333, "x": -204.87, "y": 161.96 },
					{ "time": 0.0667, "x": -235.25, "y": 133.24 },
					{ "time": 0.1333, "x": -265.78, "y": 152.65 },
					{ "time": 0.5667, "x": -310.22, "y": -11.9 }
				],
				"scale": [
					{ "time": 0, "x": 1, "y": 1, "curve": "stepped" },
					{ "time": 0.0333, "x": 1, "y": 1 },
					{ "time": 0.0667, "x": 2, "y": 2, "curve": "stepped" },
					{ "time": 0.1333, "x": 2, "y": 2 },
					{ "time": 0.5667, "x": 0.8, "y": 0.9 }
				]
			},
			"image/crash_20003_3": {
				"rotate": [
					{ "time": 0, "angle": 0, "curve": "stepped" },
					{ "time": 0.0333, "angle": 0 }
				],
				"translate": [
					{ "time": 0, "x": -28.52, "y": 76.74, "curve": "stepped" },
					{ "time": 0.0333, "x": -28.52, "y": 76.74 }
				],
				"scale": [
					{ "time": 0, "x": 1, "y": 1, "curve": "stepped" },
					{ "time": 0.0333, "x": 1, "y": 1 }
				]
			},
			"image/crash_20003_2": {
				"rotate": [
					{ "time": 0, "angle": 0, "curve": "stepped" },
					{ "time": 0.0333, "angle": 0, "curve": "stepped" },
					{ "time": 0.1333, "angle": 0 },
					{ "time": 0.5333, "angle": -107.76 }
				],
				"translate": [
					{ "time": 0, "x": 66.46, "y": 135.65, "curve": "stepped" },
					{ "time": 0.0333, "x": 66.46, "y": 135.65 },
					{ "time": 0.1333, "x": 131.77, "y": 178.66 },
					{ "time": 0.5333, "x": 169.93, "y": 86.99 }
				],
				"scale": [
					{ "time": 0, "x": 0.7, "y": 0.7, "curve": "stepped" },
					{ "time": 0.0333, "x": 0.7, "y": 0.7 },
					{ "time": 0.1333, "x": 1, "y": 1 },
					{ "time": 0.5333, "x": 0.7, "y": 0.7 }
				]
			},
			"image/crash_20003_7": {
				"rotate": [
					{ "time": 0, "angle": 0, "curve": "stepped" },
					{ "time": 0.0667, "angle": 0 },
					{ "time": 0.1, "angle": -45.65 },
					{ "time": 0.2333, "angle": -59.65 },
					{ "time": 0.5333, "angle": -103.73 }
				],
				"translate": [
					{ "time": 0, "x": 211.68, "y": -1.8, "curve": "stepped" },
					{ "time": 0.0667, "x": 211.68, "y": -1.8 },
					{ "time": 0.1, "x": 107.87, "y": 118.26 },
					{ "time": 0.2333, "x": 127.16, "y": 147.77 },
					{ "time": 0.5333, "x": 171.79, "y": 26.17 }
				],
				"scale": [
					{ "time": 0, "x": 1, "y": 1, "curve": "stepped" },
					{ "time": 0.0667, "x": 1, "y": 1, "curve": "stepped" },
					{ "time": 0.1, "x": 1, "y": 1, "curve": "stepped" },
					{ "time": 0.2333, "x": 1, "y": 1, "curve": "stepped" },
					{ "time": 0.5333, "x": 1, "y": 1 }
				]
			},
			"image/crash_20003_9": {
				"rotate": [
					{ "time": 0, "angle": 0, "curve": "stepped" },
					{ "time": 0.0333, "angle": 0, "curve": "stepped" },
					{ "time": 0.0667, "angle": 0 },
					{ "time": 0.2333, "angle": 21.37 },
					{ "time": 0.5667, "angle": 64.13 }
				],
				"translate": [
					{ "time": 0, "x": 34.15, "y": -22.98, "curve": "stepped" },
					{ "time": 0.0333, "x": 34.15, "y": -22.98 },
					{ "time": 0.0667, "x": 83.24, "y": 12.62 },
					{ "time": 0.2333, "x": 38.99, "y": 41.51 },
					{ "time": 0.5667, "x": 46.42, "y": -54.52 }
				],
				"scale": [
					{ "time": 0, "x": 1, "y": 1, "curve": "stepped" },
					{ "time": 0.0333, "x": 1, "y": 1, "curve": "stepped" },
					{ "time": 0.0667, "x": 1, "y": 1, "curve": "stepped" },
					{ "time": 0.2333, "x": 1, "y": 1, "curve": "stepped" },
					{ "time": 0.5667, "x": 1, "y": 1 }
				]
			},
			"image/crash_20003_4": {
				"rotate": [
					{ "time": 0, "angle": 0, "curve": "stepped" },
					{ "time": 0.0333, "angle": 0, "curve": "stepped" },
					{ "time": 0.2, "angle": 0 },
					{ "time": 0.6, "angle": 109.07 }
				],
				"translate": [
					{ "time": 0, "x": 3.18, "y": -20.42 },
					{ "time": 0.0333, "x": 21.68, "y": -9.83 },
					{ "time": 0.2, "x": -25.31, "y": 31.4 },
					{ "time": 0.6, "x": -88.09, "y": -184.17 }
				],
				"scale": [
					{ "time": 0, "x": 1, "y": 1, "curve": "stepped" },
					{ "time": 0.0333, "x": 1, "y": 1, "curve": "stepped" },
					{ "time": 0.2, "x": 1, "y": 1, "curve": "stepped" },
					{ "time": 0.6, "x": 1, "y": 1 }
				]
			},
			"image/crash_20003_0": {
				"rotate": [
					{ "time": 0, "angle": 0, "curve": "stepped" },
					{ "time": 0.1667, "angle": 0 },
					{ "time": 0.5333, "angle": 78.14 }
				],
				"translate": [
					{ "time": 0, "x": 102.79, "y": -45.54 },
					{ "time": 0.1667, "x": 18.05, "y": 21.31 },
					{ "time": 0.5333, "x": -30.18, "y": -87.55 }
				],
				"scale": [
					{ "time": 0, "x": 1, "y": 1, "curve": "stepped" },
					{ "time": 0.1667, "x": 1, "y": 1 },
					{ "time": 0.5333, "x": 0.5, "y": 0.5 }
				]
			},
			"image/crash_20003_1": {
				"rotate": [
					{ "time": 0, "angle": 0, "curve": "stepped" },
					{ "time": 0.0333, "angle": 0, "curve": "stepped" },
					{ "time": 0.1667, "angle": 0, "curve": "stepped" },
					{ "time": 0.5667, "angle": 0 }
				],
				"translate": [
					{ "time": 0, "x": 61.17, "y": 19.29, "curve": "stepped" },
					{ "time": 0.0333, "x": 61.17, "y": 19.29 },
					{ "time": 0.1667, "x": 48.14, "y": 59.63 },
					{ "time": 0.5667, "x": 37.4, "y": -69.64 }
				],
				"scale": [
					{ "time": 0, "x": 1, "y": 1, "curve": "stepped" },
					{ "time": 0.0333, "x": 1, "y": 1, "curve": "stepped" },
					{ "time": 0.1667, "x": 1, "y": 1, "curve": "stepped" },
					{ "time": 0.5667, "x": 1, "y": 1 }
				]
			},
			"crash_20003_bg": {
				"translate": [
					{ "time": 0, "x": -1.97, "y": 0 }
				]
			}
		}
	}
}
}