{
"skeleton": { "hash": "s2CfN55VRp+3D9bKssnuezN5c50", "spine": "3.6.53", "width": 47, "height": 46, "images": "./images/" },
"bones": [
	{ "name": "root" },
	{ "name": "anim0", "parent": "root", "x": 42.69, "y": -13.14 },
	{ "name": "anim1", "parent": "root", "x": 36.63, "y": -20.6 },
	{ "name": "anim2", "parent": "root", "x": 42.22, "y": -29.45 },
	{ "name": "ground", "parent": "root", "length": 110.14, "rotation": 90, "x": -2.05, "y": -76.92 }
],
"slots": [
	{ "name": "anim2", "bone": "anim2", "attachment": "anim2" },
	{ "name": "anim1", "bone": "anim1", "attachment": "anim1" },
	{ "name": "anim0", "bone": "anim0", "attachment": "anim0" },
	{ "name": "fonts", "bone": "root" }
],
"skins": {
	"default": {
		"anim0": {
			"anim0": { "x": 1.88, "y": -3.23, "width": 41, "height": 34 }
		},
		"anim1": {
			"anim1": { "x": 1.94, "y": -2.28, "width": 41, "height": 33 }
		},
		"anim2": {
			"anim2": { "x": 0.85, "y": -0.42, "width": 38, "height": 31 }
		}
	}
},
"animations": {
	"full0": {
		"bones": {
			"ground": {
				"rotate": [
					{ "time": 0, "angle": 0, "curve": "stepped" },
					{ "time": 0.2333, "angle": 0, "curve": "stepped" },
					{ "time": 0.4667, "angle": 0, "curve": "stepped" },
					{ "time": 0.6333, "angle": 0, "curve": "stepped" },
					{ "time": 0.8, "angle": 0, "curve": "stepped" },
					{ "time": 0.9667, "angle": 0, "curve": "stepped" },
					{ "time": 1.2333, "angle": 0 }
				],
				"translate": [
					{ "time": 0, "x": 0, "y": 0, "curve": "stepped" },
					{ "time": 0.2333, "x": 0, "y": 0 },
					{ "time": 0.4667, "x": -1.51, "y": 46.13 },
					{ "time": 0.6333, "x": 0, "y": 0, "curve": "stepped" },
					{ "time": 0.8, "x": 0, "y": 0, "curve": "stepped" },
					{ "time": 0.9667, "x": 0, "y": 0, "curve": "stepped" },
					{ "time": 1.2333, "x": 0, "y": 0 }
				],
				"scale": [
					{ "time": 0, "x": 1, "y": 1 },
					{ "time": 0.2333, "x": 0.95, "y": 1.05 },
					{ "time": 0.4667, "x": 1, "y": 1 },
					{ "time": 0.6333, "x": 0.95, "y": 1.05 },
					{ "time": 0.8, "x": 1.05, "y": 0.95 },
					{ "time": 0.9667, "x": 1, "y": 1, "curve": "stepped" },
					{ "time": 1.2333, "x": 1, "y": 1 }
				]
			},
			"anim2": {
				"rotate": [
					{ "time": 0, "angle": 0, "curve": "stepped" },
					{ "time": 0.2333, "angle": 0, "curve": "stepped" },
					{ "time": 0.3333, "angle": 0 },
					{ "time": 0.4667, "angle": 1.5 },
					{ "time": 0.6, "angle": 0, "curve": "stepped" },
					{ "time": 1.0333, "angle": 0 }
				],
				"translate": [
					{ "time": 0, "x": 0, "y": 0 },
					{ "time": 0.2333, "x": 0.75, "y": -0.75 },
					{ "time": 0.3333, "x": 0, "y": 6.78 },
					{ "time": 0.4667, "x": -2.04, "y": 39.57 },
					{ "time": 0.6, "x": 0, "y": 0, "curve": "stepped" },
					{ "time": 1.0333, "x": 0, "y": 0 }
				],
				"scale": [
					{ "time": 0, "x": 1, "y": 1, "curve": "stepped" },
					{ "time": 0.2333, "x": 1, "y": 1, "curve": "stepped" },
					{ "time": 0.3333, "x": 1, "y": 1, "curve": "stepped" },
					{ "time": 0.4667, "x": 1, "y": 1, "curve": "stepped" },
					{ "time": 0.6, "x": 1, "y": 1, "curve": "stepped" },
					{ "time": 1.0333, "x": 1, "y": 1 }
				]
			},
			"anim0": {
				"rotate": [
					{ "time": 0, "angle": 0, "curve": "stepped" },
					{ "time": 0.2333, "angle": 0, "curve": "stepped" },
					{ "time": 0.3333, "angle": 0 },
					{ "time": 0.5667, "angle": 1.5 },
					{ "time": 0.7, "angle": -9.11 },
					{ "time": 0.8333, "angle": 0, "curve": "stepped" },
					{ "time": 1.0333, "angle": 0 }
				],
				"translate": [
					{ "time": 0, "x": 2.45, "y": 0.89 },
					{ "time": 0.2333, "x": 3.2, "y": 0.13 },
					{ "time": 0.3333, "x": 2.45, "y": 7.67 },
					{ "time": 0.5667, "x": -1.29, "y": 49.36 },
					{ "time": 0.8333, "x": 2.45, "y": 0.89, "curve": "stepped" },
					{ "time": 1.0333, "x": 2.45, "y": 0.89 }
				],
				"scale": [
					{ "time": 0, "x": 1, "y": 1, "curve": "stepped" },
					{ "time": 0.2333, "x": 1, "y": 1, "curve": "stepped" },
					{ "time": 0.3333, "x": 1, "y": 1, "curve": "stepped" },
					{ "time": 0.5667, "x": 1, "y": 1, "curve": "stepped" },
					{ "time": 0.8333, "x": 1, "y": 1, "curve": "stepped" },
					{ "time": 1.0333, "x": 1, "y": 1 }
				]
			},
			"anim1": {
				"rotate": [
					{ "time": 0, "angle": 0, "curve": "stepped" },
					{ "time": 0.2333, "angle": 0, "curve": "stepped" },
					{ "time": 0.3333, "angle": 0 },
					{ "time": 0.5333, "angle": 1.5 },
					{ "time": 0.7, "angle": 0, "curve": "stepped" },
					{ "time": 1.0333, "angle": 0 }
				],
				"translate": [
					{ "time": 0, "x": 0, "y": 0 },
					{ "time": 0.2333, "x": 0.75, "y": -0.75 },
					{ "time": 0.3333, "x": 0, "y": 6.78 },
					{ "time": 0.5333, "x": -1.29, "y": 41.83 },
					{ "time": 0.7, "x": 0, "y": 0, "curve": "stepped" },
					{ "time": 1.0333, "x": 0, "y": 0 }
				],
				"scale": [
					{ "time": 0, "x": 1, "y": 1, "curve": "stepped" },
					{ "time": 0.2333, "x": 1, "y": 1, "curve": "stepped" },
					{ "time": 0.3333, "x": 1, "y": 1, "curve": "stepped" },
					{ "time": 0.5333, "x": 1, "y": 1, "curve": "stepped" },
					{ "time": 0.7, "x": 1, "y": 1, "curve": "stepped" },
					{ "time": 1.0333, "x": 1, "y": 1 }
				]
			}
		}
	},
	"idle": {
		"bones": {
			"anim0": {
				"rotate": [
					{ "time": 0, "angle": 0 },
					{ "time": 0.2333, "angle": 1.5 },
					{ "time": 0.3667, "angle": -9.11 },
					{ "time": 0.5, "angle": 0, "curve": "stepped" },
					{ "time": 0.8, "angle": 0 }
				],
				"translate": [
					{ "time": 0, "x": 2.45, "y": 0.89 },
					{ "time": 0.2333, "x": 0.22, "y": 29.78 },
					{ "time": 0.5, "x": 2.45, "y": 0.89, "curve": "stepped" },
					{ "time": 0.8, "x": 2.45, "y": 0.89 }
				],
				"scale": [
					{ "time": 0, "x": 1, "y": 1, "curve": "stepped" },
					{ "time": 0.2333, "x": 1, "y": 1, "curve": "stepped" },
					{ "time": 0.5, "x": 1, "y": 1, "curve": "stepped" },
					{ "time": 0.8, "x": 1, "y": 1 }
				]
			},
			"anim1": {
				"rotate": [
					{ "time": 0, "angle": 0 },
					{ "time": 0.2, "angle": 1.5 },
					{ "time": 0.3667, "angle": 0, "curve": "stepped" },
					{ "time": 0.8, "angle": 0 }
				],
				"translate": [
					{ "time": 0, "x": 0, "y": 0 },
					{ "time": 0.2, "x": 0.22, "y": 29.78 },
					{ "time": 0.3667, "x": 0, "y": 0, "curve": "stepped" },
					{ "time": 0.8, "x": 0, "y": 0 }
				],
				"scale": [
					{ "time": 0, "x": 1, "y": 1, "curve": "stepped" },
					{ "time": 0.2, "x": 1, "y": 1, "curve": "stepped" },
					{ "time": 0.3667, "x": 1, "y": 1, "curve": "stepped" },
					{ "time": 0.8, "x": 1, "y": 1 }
				]
			},
			"anim2": {
				"rotate": [
					{ "time": 0, "angle": 0 },
					{ "time": 0.1333, "angle": 1.5 },
					{ "time": 0.2667, "angle": 0, "curve": "stepped" },
					{ "time": 0.8, "angle": 0 }
				],
				"translate": [
					{ "time": 0, "x": 0, "y": 0 },
					{ "time": 0.1333, "x": 0.22, "y": 29.78 },
					{ "time": 0.2667, "x": 0, "y": 0, "curve": "stepped" },
					{ "time": 0.8, "x": 0, "y": 0 }
				],
				"scale": [
					{ "time": 0, "x": 1, "y": 1, "curve": "stepped" },
					{ "time": 0.1333, "x": 1, "y": 1, "curve": "stepped" },
					{ "time": 0.2667, "x": 1, "y": 1, "curve": "stepped" },
					{ "time": 0.8, "x": 1, "y": 1 }
				]
			}
		}
	},
	"idle0": {
		"bones": {
			"anim0": {
				"rotate": [
					{ "time": 0, "angle": 0 }
				],
				"translate": [
					{ "time": 0, "x": 2.45, "y": 0.89 }
				],
				"scale": [
					{ "time": 0, "x": 1, "y": 1 }
				]
			},
			"anim1": {
				"rotate": [
					{ "time": 0, "angle": 0 }
				],
				"translate": [
					{ "time": 0, "x": 0, "y": 0 }
				],
				"scale": [
					{ "time": 0, "x": 1, "y": 1 }
				]
			},
			"anim2": {
				"rotate": [
					{ "time": 0, "angle": 0 }
				],
				"translate": [
					{ "time": 0, "x": 0, "y": 0 }
				],
				"scale": [
					{ "time": 0, "x": 1, "y": 1 }
				]
			},
			"ground": {
				"rotate": [
					{ "time": 0, "angle": 0 }
				],
				"translate": [
					{ "time": 0, "x": 0, "y": 0 }
				],
				"scale": [
					{ "time": 0, "x": 1, "y": 1 }
				]
			}
		}
	}
}
}