{
"skeleton": { "hash": "UgFkAQTLpb5aSD1jdGmovQl4L7w", "spine": "3.6.53", "width": 207, "height": 212.83, "images": "./images/" },
"bones": [
	{ "name": "root" },
	{ "name": "bone", "parent": "root", "length": 92.46, "rotation": 90.9, "x": -0.85, "y": -34.4 },
	{ "name": "color0", "parent": "bone", "rotation": -90.9, "x": 113.05, "y": 0.02 },
	{ "name": "color1", "parent": "bone", "rotation": -90.9, "x": 76.01, "y": -1.97 },
	{ "name": "color2", "parent": "bone", "rotation": -90.9, "x": 14.86, "y": -0.49 },
	{ "name": "eye_z", "parent": "bone", "rotation": -90.9, "x": 89.88, "y": -2.19 },
	{ "name": "mouth", "parent": "bone", "rotation": -90.9, "x": 60.08, "y": -1.21 }
],
"slots": [
	{ "name": "餐厅750", "bone": "root" },
	{ "name": "ground", "bone": "root", "attachment": "ground" },
	{ "name": "color0", "bone": "color0", "attachment": "color0" },
	{ "name": "color1", "bone": "color1", "attachment": "color1" },
	{ "name": "color2", "bone": "color2", "attachment": "color2" },
	{ "name": "light0", "bone": "bone", "attachment": "light0" },
	{ "name": "mouth", "bone": "mouth", "attachment": "mouth" },
	{ "name": "eye_z", "bone": "eye_z", "attachment": "eye_z" },
	{ "name": "fonts", "bone": "root", "attachment": "fonts" }
],
"skins": {
	"default": {
		"color0": {
			"color0": {
				"type": "mesh",
				"uvs": [ 1, 0.99648, 0, 0.99648, 0, 0.00352, 1, 0.00352 ],
				"triangles": [ 1, 2, 3, 1, 3, 0 ],
				"vertices": [ 82.02, -113.82, -78.98, -113.82, -78.98, 27.18, 82.02, 27.18 ],
				"hull": 4,
				"edges": [ 0, 2, 2, 4, 4, 6, 0, 6 ],
				"width": 161,
				"height": 142
			}
		},
		"color1": {
			"color1": { "x": -1.05, "y": -6.32, "width": 161, "height": 142 }
		},
		"color2": {
			"color2": { "x": -0.54, "y": 54.85, "width": 161, "height": 142 }
		},
		"eye_z": {
			"eye_b": { "x": 0.95, "y": 3.31, "width": 68, "height": 9 },
			"eye_z": {
				"type": "mesh",
				"uvs": [ 0.92267, 0.08719, 0.96789, 0.25647, 0.98354, 0.44718, 0.98441, 0.62504, 0.97397, 0.79433, 0.95223, 0.89504, 0.88876, 1, 0.80963, 0.91218, 0.77137, 0.78361, 0.74615, 0.63361, 0.49833, 0.55861, 0.2541, 0.65816, 0.21711, 0.84044, 0.17844, 0.93573, 0.11456, 1, 0.04227, 0.90259, 0.02455, 0.8179, 0, 0.61673, 0, 0.44273, 0.0305, 0.24802, 0.07253, 0.07402, 0.1465, 0, 0.22384, 0.10302, 0.25242, 0.28116, 0.49572, 0.37219, 0.74615, 0.25647, 0.77919, 0.09147, 0.83745, 0, 0.26586, 0.46759, 0.73485, 0.46004, 0.87919, 0.47076, 0.13311, 0.49004 ],
				"triangles": [ 30, 26, 27, 31, 20, 21, 29, 24, 25, 30, 25, 26, 0, 1, 30, 28, 23, 24, 27, 0, 30, 30, 1, 2, 29, 25, 30, 21, 22, 31, 20, 31, 19, 31, 23, 28, 23, 31, 22, 18, 19, 31, 10, 24, 29, 28, 24, 10, 17, 18, 31, 30, 2, 3, 9, 29, 30, 30, 8, 9, 10, 29, 9, 11, 31, 28, 11, 28, 10, 16, 17, 31, 8, 30, 7, 4, 5, 30, 31, 15, 16, 14, 15, 31, 3, 4, 30, 13, 31, 12, 30, 6, 7, 11, 12, 31, 13, 14, 31, 5, 6, 30 ],
				"vertices": [ 1, 5, 30.61, 13.36, 1, 1, 5, 33.73, 8.62, 1, 1, 5, 34.81, 3.28, 1, 1, 5, 34.87, -1.7, 1, 1, 5, 34.15, -6.44, 1, 1, 5, 32.65, -9.26, 1, 1, 5, 28.27, -12.19, 1, 1, 5, 22.81, -9.74, 1, 1, 5, 20.17, -6.14, 1, 1, 5, 18.43, -1.94, 1, 1, 5, 1.33, 0.16, 1, 1, 5, -15.52, -2.62, 1, 1, 5, -18.07, -7.73, 1, 1, 5, -20.74, -10.39, 1, 1, 5, -25.15, -12.19, 1, 1, 5, -30.13, -9.47, 1, 1, 5, -31.36, -7.1, 1, 1, 5, -33.05, -1.46, 1, 1, 5, -33.05, 3.41, 1, 1, 5, -30.95, 8.86, 1, 1, 5, -28.05, 13.73, 1, 1, 5, -22.94, 15.81, 1, 1, 5, -17.61, 12.92, 1, 1, 5, -15.63, 7.93, 1, 1, 5, 1.15, 5.38, 1, 1, 5, 18.43, 8.62, 1, 1, 5, 20.71, 13.24, 1, 1, 5, 24.73, 15.81, 1, 1, 5, -14.71, 2.71, 1, 1, 5, 17.65, 2.92, 1, 1, 5, 27.61, 2.62, 1, 1, 5, -23.87, 2.08, 1 ],
				"hull": 28,
				"edges": [ 34, 36, 8, 10, 10, 12, 6, 8, 54, 0, 0, 2, 2, 4, 4, 6, 40, 42, 36, 38, 38, 40, 28, 30, 30, 32, 32, 34, 26, 28, 12, 14, 18, 20, 14, 16, 16, 18, 50, 52, 52, 54, 48, 50, 42, 44, 44, 46, 46, 48, 22, 24, 24, 26, 20, 22, 40, 62, 32, 62, 42, 62, 30, 62, 28, 62, 26, 62, 54, 60, 0, 60, 12, 60, 14, 60, 10, 60 ],
				"width": 69,
				"height": 28
			}
		},
		"fonts": {
			"fonts": { "x": -0.2, "y": -85.52, "width": 149, "height": 42 }
		},
		"ground": {
			"ground": { "x": 0.38, "y": 9.81, "width": 207, "height": 163 }
		},
		"light0": {
			"light0": { "x": 119.23, "y": 31.91, "rotation": -90.9, "width": 33, "height": 22 }
		},
		"mouth": {
			"mouth": {
				"type": "mesh",
				"uvs": [ 0.94802, 0.0528, 1, 0.19337, 0.98262, 0.37601, 0.93159, 0.34927, 0.87188, 0.5959, 0.78714, 0.77418, 0.68121, 0.9287, 0.56566, 1, 0.4867, 1, 0.40292, 1, 0.31144, 0.93464, 0.21129, 0.81578, 0.13907, 0.64938, 0.09189, 0.48596, 0.06685, 0.34036, 0, 0.35521, 0, 0.18584, 0.03913, 0.08023, 0.09802, 0, 0.13913, 0.08023, 0.13246, 0.18994, 0.10802, 0.26194, 0.16024, 0.37165, 0.24246, 0.4608, 0.3458, 0.52251, 0.48024, 0.5568, 0.62802, 0.52594, 0.73468, 0.47451, 0.81802, 0.38194, 0.89913, 0.27223, 0.86691, 0.14194, 0.87802, 0 ],
				"triangles": [ 17, 18, 19, 30, 31, 0, 20, 17, 19, 16, 17, 20, 30, 0, 1, 21, 16, 20, 29, 30, 1, 14, 16, 21, 3, 29, 1, 15, 16, 14, 14, 21, 22, 2, 3, 1, 28, 29, 3, 13, 14, 22, 13, 22, 23, 3, 4, 28, 27, 28, 4, 12, 13, 23, 12, 23, 24, 4, 26, 27, 5, 26, 4, 11, 12, 24, 5, 25, 26, 6, 25, 5, 25, 10, 11, 25, 11, 24, 9, 10, 25, 25, 8, 9, 25, 7, 8, 6, 7, 25 ],
				"vertices": [ 1, 6, 49.85, 25.77, 1, 1, 6, 55.46, 20.85, 1, 1, 6, 53.59, 14.46, 1, 1, 6, 48.07, 15.39, 1, 1, 6, 41.63, 6.76, 1, 1, 6, 32.47, 0.52, 1, 1, 6, 21.03, -4.89, 1, 1, 6, 8.56, -7.38, 1, 1, 6, 0.03, -7.38, 1, 1, 6, -9.02, -7.38, 1, 1, 6, -18.9, -5.09, 1, 1, 6, -29.72, -0.93, 1, 1, 6, -37.52, 4.89, 1, 1, 6, -42.61, 10.61, 1, 1, 6, -45.32, 15.71, 1, 1, 6, -52.54, 15.19, 1, 1, 6, -52.54, 21.11, 1, 1, 6, -48.31, 24.81, 1, 1, 6, -41.95, 27.62, 1, 1, 6, -37.51, 24.81, 1, 1, 6, -38.23, 20.97, 1, 1, 6, -40.87, 18.45, 1, 1, 6, -35.23, 14.61, 1, 1, 6, -26.35, 11.49, 1, 1, 6, -15.19, 9.33, 1, 1, 6, -0.67, 8.13, 1, 1, 6, 15.29, 9.21, 1, 1, 6, 26.81, 11.01, 1, 1, 6, 35.81, 14.25, 1, 1, 6, 44.57, 18.09, 1, 1, 6, 41.09, 22.65, 1, 1, 6, 42.29, 27.62, 1 ],
				"hull": 32,
				"edges": [ 14, 16, 16, 18, 30, 32, 2, 4, 10, 12, 12, 14, 62, 0, 0, 2, 32, 34, 34, 36, 18, 20, 20, 22, 28, 30, 22, 24, 24, 26, 26, 28, 4, 6, 6, 8, 8, 10, 36, 38, 38, 40, 40, 42, 46, 48, 48, 50, 50, 52, 52, 54, 58, 60, 60, 62, 56, 58, 54, 56, 42, 44, 44, 46, 50, 18, 50, 14 ],
				"width": 108,
				"height": 35
			}
		}
	}
},
"animations": {
	"animation": {
		"slots": {
			"color1": {
				"color": [
					{ "time": 0, "color": "ffffff00" },
					{ "time": 0.6667, "color": "ffffffff" },
					{ "time": 2.0333, "color": "ffffff00" },
					{ "time": 2.7, "color": "ffffffff" }
				],
				"attachment": [
					{ "time": 0, "name": "color1" },
					{ "time": 0.6667, "name": "color1" },
					{ "time": 1.3333, "name": null },
					{ "time": 2.0333, "name": "color1" },
					{ "time": 2.7, "name": "color1" },
					{ "time": 3.3667, "name": null }
				]
			},
			"color2": {
				"color": [
					{ "time": 0.6667, "color": "ffffff00" },
					{ "time": 1.3333, "color": "ffffffff" },
					{ "time": 2, "color": "ffffff00", "curve": "stepped" },
					{ "time": 2.7, "color": "ffffff00" },
					{ "time": 3.3667, "color": "ffffffff" },
					{ "time": 4.0333, "color": "ffffff00", "curve": "stepped" },
					{ "time": 5.1667, "color": "ffffff00" }
				],
				"attachment": [
					{ "time": 0, "name": null },
					{ "time": 0.6667, "name": "color2" },
					{ "time": 2.0333, "name": null },
					{ "time": 2.7, "name": "color2" }
				]
			},
			"eye_z": {
				"attachment": [
					{ "time": 0, "name": "eye_z" },
					{ "time": 2.0333, "name": "eye_z" },
					{ "time": 4.1667, "name": "eye_b" },
					{ "time": 4.2667, "name": "eye_z" },
					{ "time": 4.5667, "name": "eye_b" },
					{ "time": 4.6667, "name": "eye_z" }
				]
			}
		},
		"bones": {
			"color1": {
				"rotate": [
					{ "time": 0, "angle": 0, "curve": "stepped" },
					{ "time": 0.6667, "angle": 0, "curve": "stepped" },
					{ "time": 1.3333, "angle": 0, "curve": "stepped" },
					{ "time": 2, "angle": 0, "curve": "stepped" },
					{ "time": 2.0333, "angle": 0, "curve": "stepped" },
					{ "time": 2.7, "angle": 0, "curve": "stepped" },
					{ "time": 3.3667, "angle": 0, "curve": "stepped" },
					{ "time": 4.0333, "angle": 0, "curve": "stepped" },
					{ "time": 5.1667, "angle": 0 }
				],
				"translate": [
					{ "time": 0, "x": 0, "y": 0, "curve": "stepped" },
					{ "time": 0.6667, "x": 0, "y": 0, "curve": "stepped" },
					{ "time": 1.3333, "x": 0, "y": 0, "curve": "stepped" },
					{ "time": 2, "x": 0, "y": 0, "curve": "stepped" },
					{ "time": 2.0333, "x": 0, "y": 0, "curve": "stepped" },
					{ "time": 2.7, "x": 0, "y": 0, "curve": "stepped" },
					{ "time": 3.3667, "x": 0, "y": 0, "curve": "stepped" },
					{ "time": 4.0333, "x": 0, "y": 0, "curve": "stepped" },
					{ "time": 5.1667, "x": 0, "y": 0 }
				],
				"scale": [
					{ "time": 0, "x": 1, "y": 1, "curve": "stepped" },
					{ "time": 0.6667, "x": 1, "y": 1, "curve": "stepped" },
					{ "time": 1.3333, "x": 1, "y": 1, "curve": "stepped" },
					{ "time": 2, "x": 1, "y": 1, "curve": "stepped" },
					{ "time": 2.0333, "x": 1, "y": 1, "curve": "stepped" },
					{ "time": 2.7, "x": 1, "y": 1, "curve": "stepped" },
					{ "time": 3.3667, "x": 1, "y": 1, "curve": "stepped" },
					{ "time": 4.0333, "x": 1, "y": 1, "curve": "stepped" },
					{ "time": 5.1667, "x": 1, "y": 1 }
				]
			},
			"color0": {
				"rotate": [
					{ "time": 0, "angle": 0, "curve": "stepped" },
					{ "time": 0.6667, "angle": 0, "curve": "stepped" },
					{ "time": 1.3333, "angle": 0, "curve": "stepped" },
					{ "time": 2, "angle": 0, "curve": "stepped" },
					{ "time": 2.0333, "angle": 0, "curve": "stepped" },
					{ "time": 2.7, "angle": 0, "curve": "stepped" },
					{ "time": 3.3667, "angle": 0, "curve": "stepped" },
					{ "time": 4.0333, "angle": 0, "curve": "stepped" },
					{ "time": 5.1667, "angle": 0 }
				],
				"translate": [
					{ "time": 0, "x": 0, "y": 0, "curve": "stepped" },
					{ "time": 0.6667, "x": 0, "y": 0, "curve": "stepped" },
					{ "time": 1.3333, "x": 0, "y": 0, "curve": "stepped" },
					{ "time": 2, "x": 0, "y": 0, "curve": "stepped" },
					{ "time": 2.0333, "x": 0, "y": 0, "curve": "stepped" },
					{ "time": 2.7, "x": 0, "y": 0, "curve": "stepped" },
					{ "time": 3.3667, "x": 0, "y": 0, "curve": "stepped" },
					{ "time": 4.0333, "x": 0, "y": 0, "curve": "stepped" },
					{ "time": 5.1667, "x": 0, "y": 0 }
				],
				"scale": [
					{ "time": 0, "x": 1, "y": 1, "curve": "stepped" },
					{ "time": 0.6667, "x": 1, "y": 1, "curve": "stepped" },
					{ "time": 1.3333, "x": 1, "y": 1, "curve": "stepped" },
					{ "time": 2, "x": 1, "y": 1, "curve": "stepped" },
					{ "time": 2.0333, "x": 1, "y": 1, "curve": "stepped" },
					{ "time": 2.7, "x": 1, "y": 1, "curve": "stepped" },
					{ "time": 3.3667, "x": 1, "y": 1, "curve": "stepped" },
					{ "time": 4.0333, "x": 1, "y": 1, "curve": "stepped" },
					{ "time": 5.1667, "x": 1, "y": 1 }
				]
			},
			"color2": {
				"rotate": [
					{ "time": 0, "angle": 0, "curve": "stepped" },
					{ "time": 0.6667, "angle": 0, "curve": "stepped" },
					{ "time": 1.3333, "angle": 0, "curve": "stepped" },
					{ "time": 2, "angle": 0, "curve": "stepped" },
					{ "time": 2.0333, "angle": 0, "curve": "stepped" },
					{ "time": 2.7, "angle": 0, "curve": "stepped" },
					{ "time": 3.3667, "angle": 0, "curve": "stepped" },
					{ "time": 4.0333, "angle": 0, "curve": "stepped" },
					{ "time": 5.1667, "angle": 0 }
				],
				"translate": [
					{ "time": 0, "x": 0, "y": 0, "curve": "stepped" },
					{ "time": 0.6667, "x": 0, "y": 0, "curve": "stepped" },
					{ "time": 1.3333, "x": 0, "y": 0, "curve": "stepped" },
					{ "time": 2, "x": 0, "y": 0, "curve": "stepped" },
					{ "time": 2.0333, "x": 0, "y": 0, "curve": "stepped" },
					{ "time": 2.7, "x": 0, "y": 0, "curve": "stepped" },
					{ "time": 3.3667, "x": 0, "y": 0, "curve": "stepped" },
					{ "time": 4.0333, "x": 0, "y": 0, "curve": "stepped" },
					{ "time": 5.1667, "x": 0, "y": 0 }
				],
				"scale": [
					{ "time": 0, "x": 1, "y": 1, "curve": "stepped" },
					{ "time": 0.6667, "x": 1, "y": 1, "curve": "stepped" },
					{ "time": 1.3333, "x": 1, "y": 1, "curve": "stepped" },
					{ "time": 2, "x": 1, "y": 1, "curve": "stepped" },
					{ "time": 2.0333, "x": 1, "y": 1, "curve": "stepped" },
					{ "time": 2.7, "x": 1, "y": 1, "curve": "stepped" },
					{ "time": 3.3667, "x": 1, "y": 1, "curve": "stepped" },
					{ "time": 4.0333, "x": 1, "y": 1, "curve": "stepped" },
					{ "time": 5.1667, "x": 1, "y": 1 }
				]
			},
			"eye_z": {
				"rotate": [
					{ "time": 0, "angle": 0, "curve": "stepped" },
					{ "time": 0.6667, "angle": 0, "curve": "stepped" },
					{ "time": 1.3333, "angle": 0, "curve": "stepped" },
					{ "time": 2, "angle": 0, "curve": "stepped" },
					{ "time": 2.0333, "angle": 0, "curve": "stepped" },
					{ "time": 2.7, "angle": 0, "curve": "stepped" },
					{ "time": 3.3667, "angle": 0, "curve": "stepped" },
					{ "time": 4.0333, "angle": 0, "curve": "stepped" },
					{ "time": 5.1667, "angle": 0 }
				],
				"translate": [
					{ "time": 0, "x": 0, "y": 0, "curve": "stepped" },
					{ "time": 0.6667, "x": 0, "y": 0, "curve": "stepped" },
					{ "time": 1.3333, "x": 0, "y": 0, "curve": "stepped" },
					{ "time": 2, "x": 0, "y": 0, "curve": "stepped" },
					{ "time": 2.0333, "x": 0, "y": 0, "curve": "stepped" },
					{ "time": 2.7, "x": 0, "y": 0, "curve": "stepped" },
					{ "time": 3.3667, "x": 0, "y": 0, "curve": "stepped" },
					{ "time": 4.0333, "x": 0, "y": 0, "curve": "stepped" },
					{ "time": 5.1667, "x": 0, "y": 0 }
				],
				"scale": [
					{ "time": 0, "x": 1, "y": 1, "curve": "stepped" },
					{ "time": 0.6667, "x": 1, "y": 1, "curve": "stepped" },
					{ "time": 1.3333, "x": 1, "y": 1, "curve": "stepped" },
					{ "time": 2, "x": 1, "y": 1, "curve": "stepped" },
					{ "time": 2.0333, "x": 1, "y": 1, "curve": "stepped" },
					{ "time": 2.7, "x": 1, "y": 1, "curve": "stepped" },
					{ "time": 3.3667, "x": 1, "y": 1, "curve": "stepped" },
					{ "time": 4.0333, "x": 1, "y": 1, "curve": "stepped" },
					{ "time": 5.1667, "x": 1, "y": 1 }
				]
			},
			"mouth": {
				"rotate": [
					{ "time": 0, "angle": 0, "curve": "stepped" },
					{ "time": 0.6667, "angle": 0, "curve": "stepped" },
					{ "time": 1.3333, "angle": 0, "curve": "stepped" },
					{ "time": 2, "angle": 0, "curve": "stepped" },
					{ "time": 2.0333, "angle": 0, "curve": "stepped" },
					{ "time": 2.7, "angle": 0, "curve": "stepped" },
					{ "time": 3.3667, "angle": 0, "curve": "stepped" },
					{ "time": 4.0333, "angle": 0, "curve": "stepped" },
					{ "time": 5.1667, "angle": 0 }
				],
				"translate": [
					{ "time": 0, "x": 0, "y": 0, "curve": "stepped" },
					{ "time": 0.6667, "x": 0, "y": 0, "curve": "stepped" },
					{ "time": 1.3333, "x": 0, "y": 0, "curve": "stepped" },
					{ "time": 2, "x": 0, "y": 0, "curve": "stepped" },
					{ "time": 2.0333, "x": 0, "y": 0, "curve": "stepped" },
					{ "time": 2.7, "x": 0, "y": 0, "curve": "stepped" },
					{ "time": 3.3667, "x": 0, "y": 0, "curve": "stepped" },
					{ "time": 4.0333, "x": 0, "y": 0, "curve": "stepped" },
					{ "time": 5.1667, "x": 0, "y": 0 }
				],
				"scale": [
					{ "time": 0, "x": 1, "y": 1, "curve": "stepped" },
					{ "time": 0.6667, "x": 1, "y": 1, "curve": "stepped" },
					{ "time": 1.3333, "x": 1, "y": 1, "curve": "stepped" },
					{ "time": 2, "x": 1, "y": 1, "curve": "stepped" },
					{ "time": 2.0333, "x": 1, "y": 1, "curve": "stepped" },
					{ "time": 2.7, "x": 1, "y": 1, "curve": "stepped" },
					{ "time": 3.3667, "x": 1, "y": 1, "curve": "stepped" },
					{ "time": 4.0333, "x": 1, "y": 1, "curve": "stepped" },
					{ "time": 5.1667, "x": 1, "y": 1 }
				]
			},
			"bone": {
				"rotate": [
					{ "time": 0, "angle": 0, "curve": "stepped" },
					{ "time": 0.6667, "angle": 0, "curve": "stepped" },
					{ "time": 1.3333, "angle": 0, "curve": "stepped" },
					{ "time": 2, "angle": 0, "curve": "stepped" },
					{ "time": 2.0333, "angle": 0, "curve": "stepped" },
					{ "time": 4.0333, "angle": 0, "curve": "stepped" },
					{ "time": 5.1667, "angle": 0 }
				],
				"translate": [
					{ "time": 0, "x": 0, "y": 0, "curve": "stepped" },
					{ "time": 0.6667, "x": 0, "y": 0, "curve": "stepped" },
					{ "time": 1.3333, "x": 0, "y": 0, "curve": "stepped" },
					{ "time": 2, "x": 0, "y": 0, "curve": "stepped" },
					{ "time": 2.0333, "x": 0, "y": 0, "curve": "stepped" },
					{ "time": 4.0333, "x": 0, "y": 0, "curve": "stepped" },
					{ "time": 5.1667, "x": 0, "y": 0 }
				],
				"scale": [
					{ "time": 0, "x": 1, "y": 1 },
					{ "time": 0.6667, "x": 0.97, "y": 1.03 },
					{ "time": 1.3333, "x": 1.03, "y": 0.97 },
					{ "time": 2, "x": 1, "y": 1, "curve": "stepped" },
					{ "time": 2.0333, "x": 1, "y": 1 },
					{ "time": 2.7, "x": 0.97, "y": 1.03 },
					{ "time": 3.3667, "x": 1.03, "y": 0.97 },
					{ "time": 4.0333, "x": 1, "y": 1, "curve": "stepped" },
					{ "time": 5.1667, "x": 1, "y": 1 }
				]
			}
		},
		"deform": {
			"default": {
				"eye_z": {
					"eye_z": [
						{ "time": 4.0667 },
						{
							"time": 4.1383,
							"vertices": [ 0.075, -3.14999, -0.375, -0.89999, 0, 0, -0.225, 2.39999, -0.97499, 4.19999, -1.64999, 7.87498, -0.82499, 12.67496, 0.75, 9.37499, 0.075, 3.44998, -0.3, 1.575, 0, 0, 0, 0, 0.15, 6.37498, -0.675, 11.09997, -0.075, 12.37497, -0.675, 5.62498, -0.9, 4.49998, 0.225, 3.22499, 0.225, 1.95, 0.375, -0.9, 0.29999, -3.22499, -0.52499, -4.64999, -0.975, -3.44999, -0.6, -1.95, 0, 0, 0.15, -1.8, 0.525, -2.84999, 0.74999, -3.82499, 0, 0, 0, 0, 0, 0, 0, 2.47499 ],
							"curve": "stepped"
						},
						{
							"time": 4.2667,
							"vertices": [ 0.075, -3.14999, -0.375, -0.89999, 0, 0, -0.225, 2.39999, -0.97499, 4.19999, -1.64999, 7.87498, -0.82499, 12.67496, 0.75, 9.37499, 0.075, 3.44998, -0.3, 1.575, 0, 0, 0, 0, 0.15, 6.37498, -0.675, 11.09997, -0.075, 12.37497, -0.675, 5.62498, -0.9, 4.49998, 0.225, 3.22499, 0.225, 1.95, 0.375, -0.9, 0.29999, -3.22499, -0.52499, -4.64999, -0.975, -3.44999, -0.6, -1.95, 0, 0, 0.15, -1.8, 0.525, -2.84999, 0.74999, -3.82499, 0, 0, 0, 0, 0, 0, 0, 2.47499 ]
						},
						{ "time": 4.3333, "curve": "stepped" },
						{ "time": 4.4667 },
						{
							"time": 4.5333,
							"vertices": [ 0.075, -3.14999, -0.375, -0.89999, 0, 0, -0.225, 2.39999, -0.97499, 4.19999, -1.64999, 7.87498, -0.82499, 12.67496, 0.75, 9.37499, 0.075, 3.44998, -0.3, 1.575, 0, 0, 0, 0, 0.15, 6.37498, -0.675, 11.09997, -0.075, 12.37497, -0.675, 5.62498, -0.9, 4.49998, 0.225, 3.22499, 0.225, 1.95, 0.375, -0.9, 0.29999, -3.22499, -0.52499, -4.64999, -0.975, -3.44999, -0.6, -1.95, 0, 0, 0.15, -1.8, 0.525, -2.84999, 0.74999, -3.82499, 0, 0, 0, 0, 0, 0, 0, 2.47499 ],
							"curve": "stepped"
						},
						{
							"time": 4.6667,
							"vertices": [ 0.075, -3.14999, -0.375, -0.89999, 0, 0, -0.225, 2.39999, -0.97499, 4.19999, -1.64999, 7.87498, -0.82499, 12.67496, 0.75, 9.37499, 0.075, 3.44998, -0.3, 1.575, 0, 0, 0, 0, 0.15, 6.37498, -0.675, 11.09997, -0.075, 12.37497, -0.675, 5.62498, -0.9, 4.49998, 0.225, 3.22499, 0.225, 1.95, 0.375, -0.9, 0.29999, -3.22499, -0.52499, -4.64999, -0.975, -3.44999, -0.6, -1.95, 0, 0, 0.15, -1.8, 0.525, -2.84999, 0.74999, -3.82499, 0, 0, 0, 0, 0, 0, 0, 2.47499 ]
						},
						{ "time": 4.7333 }
					]
				}
			}
		}
	}
}
}